<?xml version="1.0" encoding="utf-8"?>
<!DOCTYPE eagle SYSTEM "eagle.dtd">
<eagle version="6.3">
<drawing>
<settings>
<setting alwaysvectorfont="no"/>
<setting verticaltext="up"/>
</settings>
<grid distance="0.0125" unitdist="inch" unit="mm" style="lines" multiple="1" display="yes" altdistance="0.025" altunitdist="inch" altunit="inch"/>
<layers>
<layer number="1" name="Top" color="4" fill="1" visible="yes" active="yes"/>
<layer number="2" name="Route2" color="1" fill="3" visible="no" active="no"/>
<layer number="3" name="Route3" color="4" fill="3" visible="no" active="no"/>
<layer number="4" name="Route4" color="1" fill="4" visible="no" active="no"/>
<layer number="5" name="Route5" color="4" fill="4" visible="no" active="no"/>
<layer number="6" name="Route6" color="1" fill="8" visible="no" active="no"/>
<layer number="7" name="Route7" color="4" fill="8" visible="no" active="no"/>
<layer number="8" name="Route8" color="1" fill="2" visible="no" active="no"/>
<layer number="9" name="Route9" color="4" fill="2" visible="no" active="no"/>
<layer number="10" name="Route10" color="1" fill="7" visible="no" active="no"/>
<layer number="11" name="Route11" color="4" fill="7" visible="no" active="no"/>
<layer number="12" name="Route12" color="1" fill="5" visible="no" active="no"/>
<layer number="13" name="Route13" color="4" fill="5" visible="no" active="no"/>
<layer number="14" name="Route14" color="1" fill="6" visible="no" active="no"/>
<layer number="15" name="Route15" color="4" fill="6" visible="no" active="no"/>
<layer number="16" name="Bottom" color="1" fill="1" visible="yes" active="yes"/>
<layer number="17" name="Pads" color="2" fill="1" visible="yes" active="yes"/>
<layer number="18" name="Vias" color="2" fill="1" visible="yes" active="yes"/>
<layer number="19" name="Unrouted" color="6" fill="1" visible="yes" active="yes"/>
<layer number="20" name="Dimension" color="15" fill="1" visible="yes" active="yes"/>
<layer number="21" name="tPlace" color="7" fill="1" visible="yes" active="yes"/>
<layer number="22" name="bPlace" color="7" fill="1" visible="yes" active="yes"/>
<layer number="23" name="tOrigins" color="15" fill="1" visible="yes" active="yes"/>
<layer number="24" name="bOrigins" color="15" fill="1" visible="yes" active="yes"/>
<layer number="25" name="tNames" color="7" fill="1" visible="no" active="yes"/>
<layer number="26" name="bNames" color="7" fill="1" visible="no" active="yes"/>
<layer number="27" name="tValues" color="7" fill="1" visible="yes" active="yes"/>
<layer number="28" name="bValues" color="7" fill="1" visible="yes" active="yes"/>
<layer number="29" name="tStop" color="7" fill="3" visible="no" active="yes"/>
<layer number="30" name="bStop" color="7" fill="6" visible="no" active="yes"/>
<layer number="31" name="tCream" color="7" fill="4" visible="yes" active="yes"/>
<layer number="32" name="bCream" color="7" fill="5" visible="yes" active="yes"/>
<layer number="33" name="tFinish" color="6" fill="3" visible="yes" active="yes"/>
<layer number="34" name="bFinish" color="6" fill="6" visible="yes" active="yes"/>
<layer number="35" name="tGlue" color="7" fill="4" visible="yes" active="yes"/>
<layer number="36" name="bGlue" color="7" fill="5" visible="yes" active="yes"/>
<layer number="37" name="tTest" color="7" fill="1" visible="yes" active="yes"/>
<layer number="38" name="bTest" color="7" fill="1" visible="yes" active="yes"/>
<layer number="39" name="tKeepout" color="4" fill="11" visible="yes" active="yes"/>
<layer number="40" name="bKeepout" color="1" fill="11" visible="yes" active="yes"/>
<layer number="41" name="tRestrict" color="4" fill="10" visible="yes" active="yes"/>
<layer number="42" name="bRestrict" color="1" fill="10" visible="yes" active="yes"/>
<layer number="43" name="vRestrict" color="2" fill="10" visible="yes" active="yes"/>
<layer number="44" name="Drills" color="7" fill="1" visible="yes" active="yes"/>
<layer number="45" name="Holes" color="7" fill="1" visible="yes" active="yes"/>
<layer number="46" name="Milling" color="3" fill="1" visible="no" active="yes"/>
<layer number="47" name="Measures" color="7" fill="1" visible="yes" active="yes"/>
<layer number="48" name="Document" color="7" fill="1" visible="yes" active="yes"/>
<layer number="49" name="Reference" color="7" fill="1" visible="yes" active="yes"/>
<layer number="51" name="tDocu" color="7" fill="1" visible="yes" active="yes"/>
<layer number="52" name="bDocu" color="7" fill="1" visible="yes" active="yes"/>
<layer number="91" name="Nets" color="2" fill="1" visible="no" active="no"/>
<layer number="92" name="Busses" color="1" fill="1" visible="no" active="no"/>
<layer number="93" name="Pins" color="2" fill="1" visible="no" active="no"/>
<layer number="94" name="Symbols" color="4" fill="1" visible="no" active="no"/>
<layer number="95" name="Names" color="7" fill="1" visible="no" active="no"/>
<layer number="96" name="Values" color="7" fill="1" visible="no" active="no"/>
<layer number="97" name="Info" color="7" fill="1" visible="no" active="no"/>
<layer number="98" name="Guide" color="6" fill="1" visible="no" active="no"/>
</layers>
<board>
<plain>
<wire x1="-6.985" y1="40.005" x2="-6.985" y2="7.3225" width="0" layer="20"/>
<wire x1="-6.985" y1="7.3225" x2="27.9275" y2="7.3225" width="0" layer="20"/>
<wire x1="27.9275" y1="7.3225" x2="27.9275" y2="40.005" width="0" layer="20"/>
<wire x1="27.9275" y1="40.005" x2="-6.985" y2="40.005" width="0" layer="20"/>
<dimension x1="-5.3975" y1="40.005" x2="-5.3975" y2="7.9575" x3="-15.874996875" y3="23.98125" layer="46"/>
<dimension x1="-5.3975" y1="7.9575" x2="27.9275" y2="7.9575" x3="11.265" y3="-7.937496875" layer="46"/>
<rectangle x1="9.68375" y1="18.57375" x2="11.58875" y2="23.33625" layer="1" rot="R270"/>
<rectangle x1="9.2075" y1="33.655" x2="10.4775" y2="34.925" layer="1" rot="R270"/>
<rectangle x1="-1.42875" y1="27.46375" x2="0.79375" y2="28.73375" layer="1" rot="R270"/>
<rectangle x1="13.6525" y1="30.48" x2="14.9225" y2="33.02" layer="1" rot="R270"/>
<rectangle x1="16.35125" y1="25.55875" x2="22.06625" y2="31.59125" layer="1" rot="R270"/>
<rectangle x1="13.335" y1="28.575" x2="15.875" y2="30.48" layer="1" rot="R270"/>
<rectangle x1="-2.2225" y1="32.0675" x2="-0.3175" y2="33.9725" layer="1"/>
<rectangle x1="3.4925" y1="33.02" x2="5.08" y2="34.925" layer="1"/>
<rectangle x1="9.2075" y1="33.02" x2="10.16" y2="34.925" layer="1"/>
</plain>
<libraries>
<library name="maxim">
<description>&lt;b&gt;Maxim Components&lt;/b&gt;&lt;p&gt;

&lt;author&gt;Created by librarian@cadsoft.de&lt;/author&gt;</description>
<packages>
<package name="SO16">
<description>&lt;b&gt;Small Outline Package&lt;/b&gt; .150 SIOC&lt;p&gt;
Source: http://www.maxim-ic.com/package_drawings/21-0041B.pdf</description>
<wire x1="4.699" y1="1.9558" x2="-4.699" y2="1.9558" width="0.1524" layer="21"/>
<wire x1="4.699" y1="-1.9558" x2="5.08" y2="-1.5748" width="0.1524" layer="21" curve="90"/>
<wire x1="-5.08" y1="1.5748" x2="-4.699" y2="1.9558" width="0.1524" layer="21" curve="-90"/>
<wire x1="4.699" y1="1.9558" x2="5.08" y2="1.5748" width="0.1524" layer="21" curve="-90"/>
<wire x1="-5.08" y1="-1.5748" x2="-4.699" y2="-1.9558" width="0.1524" layer="21" curve="90"/>
<wire x1="-4.699" y1="-1.9558" x2="4.699" y2="-1.9558" width="0.1524" layer="21"/>
<wire x1="5.08" y1="-1.5748" x2="5.08" y2="1.5748" width="0.1524" layer="21"/>
<wire x1="-5.08" y1="1.5748" x2="-5.08" y2="0.508" width="0.1524" layer="21"/>
<wire x1="-5.08" y1="0.508" x2="-5.08" y2="-0.508" width="0.1524" layer="21"/>
<wire x1="-5.08" y1="-0.508" x2="-5.08" y2="-1.5748" width="0.1524" layer="21"/>
<wire x1="-5.08" y1="0.508" x2="-5.08" y2="-0.508" width="0.1524" layer="21" curve="-180"/>
<wire x1="-5.08" y1="-1.6002" x2="5.08" y2="-1.6002" width="0.0508" layer="21"/>
<smd name="1" x="-4.445" y="-3.0734" dx="0.6604" dy="2.032" layer="1"/>
<smd name="16" x="-4.445" y="3.0734" dx="0.6604" dy="2.032" layer="1"/>
<smd name="2" x="-3.175" y="-3.0734" dx="0.6604" dy="2.032" layer="1"/>
<smd name="3" x="-1.905" y="-3.0734" dx="0.6604" dy="2.032" layer="1"/>
<smd name="15" x="-3.175" y="3.0734" dx="0.6604" dy="2.032" layer="1"/>
<smd name="14" x="-1.905" y="3.0734" dx="0.6604" dy="2.032" layer="1"/>
<smd name="4" x="-0.635" y="-3.0734" dx="0.6604" dy="2.032" layer="1"/>
<smd name="13" x="-0.635" y="3.0734" dx="0.6604" dy="2.032" layer="1"/>
<smd name="5" x="0.635" y="-3.0734" dx="0.6604" dy="2.032" layer="1"/>
<smd name="12" x="0.635" y="3.0734" dx="0.6604" dy="2.032" layer="1"/>
<smd name="6" x="1.905" y="-3.0734" dx="0.6604" dy="2.032" layer="1"/>
<smd name="7" x="3.175" y="-3.0734" dx="0.6604" dy="2.032" layer="1"/>
<smd name="11" x="1.905" y="3.0734" dx="0.6604" dy="2.032" layer="1"/>
<smd name="10" x="3.175" y="3.0734" dx="0.6604" dy="2.032" layer="1"/>
<smd name="8" x="4.445" y="-3.0734" dx="0.6604" dy="2.032" layer="1"/>
<smd name="9" x="4.445" y="3.0734" dx="0.6604" dy="2.032" layer="1"/>
<text x="-4.064" y="-0.635" size="1.27" layer="27" ratio="10">&gt;VALUE</text>
<text x="-5.461" y="-2.032" size="1.27" layer="25" ratio="10" rot="R90">&gt;NAME</text>
<rectangle x1="-0.889" y1="1.9558" x2="-0.381" y2="3.0988" layer="51"/>
<rectangle x1="-4.699" y1="-3.0988" x2="-4.191" y2="-1.9558" layer="51"/>
<rectangle x1="-3.429" y1="-3.0988" x2="-2.921" y2="-1.9558" layer="51"/>
<rectangle x1="-2.159" y1="-3.0734" x2="-1.651" y2="-1.9304" layer="51"/>
<rectangle x1="-0.889" y1="-3.0988" x2="-0.381" y2="-1.9558" layer="51"/>
<rectangle x1="-2.159" y1="1.9558" x2="-1.651" y2="3.0988" layer="51"/>
<rectangle x1="-3.429" y1="1.9558" x2="-2.921" y2="3.0988" layer="51"/>
<rectangle x1="-4.699" y1="1.9558" x2="-4.191" y2="3.0988" layer="51"/>
<rectangle x1="0.381" y1="-3.0988" x2="0.889" y2="-1.9558" layer="51"/>
<rectangle x1="1.651" y1="-3.0988" x2="2.159" y2="-1.9558" layer="51"/>
<rectangle x1="2.921" y1="-3.0988" x2="3.429" y2="-1.9558" layer="51"/>
<rectangle x1="4.191" y1="-3.0988" x2="4.699" y2="-1.9558" layer="51"/>
<rectangle x1="0.381" y1="1.9558" x2="0.889" y2="3.0988" layer="51"/>
<rectangle x1="1.651" y1="1.9558" x2="2.159" y2="3.0988" layer="51"/>
<rectangle x1="2.921" y1="1.9558" x2="3.429" y2="3.0988" layer="51"/>
<rectangle x1="4.191" y1="1.9558" x2="4.699" y2="3.0988" layer="51"/>
</package>
</packages>
</library>
<library name="transistor-fet">
<description>&lt;b&gt;Field Effect Transistors&lt;/b&gt;&lt;p&gt;
&lt;author&gt;Created by librarian@cadsoft.de&lt;/author&gt;&lt;p&gt;
&lt;p&gt;
Symbols changed according to IEC617&lt;p&gt; 
All types, packages and assignment to symbols and pins checked&lt;p&gt;
Package outlines partly checked&lt;p&gt;
&lt;p&gt;
JFET = junction FET&lt;p&gt;
IGBT-x = insulated gate bipolar transistor&lt;p&gt;
x=N: NPN; x=P: PNP&lt;p&gt;
IGFET-mc-nnn; (IGFET=insulated gate field effect transistor)&lt;P&gt;
m=D: depletion mode (Verdr&amp;auml;ngungstyp)&lt;p&gt;
m=E: enhancement mode (Anreicherungstyp)&lt;p&gt;
c: N=N-channel; P=P-Channel&lt;p&gt;
GDSB: gate, drain, source, bulk&lt;p&gt;
&lt;p&gt;
by R. Vogg  15.March.2002</description>
<packages>
<package name="SO-8">
<description>&lt;b&gt;SO 8 small outline&lt;/b&gt;</description>
<wire x1="-1.8034" y1="2.3622" x2="-1.8034" y2="-2.3622" width="0.127" layer="21"/>
<wire x1="-1.8034" y1="-2.3622" x2="1.8034" y2="-2.3622" width="0.127" layer="21"/>
<wire x1="1.8034" y1="-2.3622" x2="1.8034" y2="2.3622" width="0.127" layer="21"/>
<wire x1="1.8034" y1="2.3622" x2="-1.8034" y2="2.3622" width="0.127" layer="21"/>
<circle x="-1.2446" y="1.8034" radius="0.3556" width="0.0508" layer="21"/>
<smd name="1" x="-2.7432" y="1.905" dx="1.524" dy="0.6096" layer="1"/>
<smd name="8" x="2.7432" y="1.905" dx="1.524" dy="0.6096" layer="1"/>
<smd name="2" x="-2.7432" y="0.635" dx="1.524" dy="0.6096" layer="1"/>
<smd name="3" x="-2.7432" y="-0.635" dx="1.524" dy="0.6096" layer="1"/>
<smd name="7" x="2.7432" y="0.635" dx="1.524" dy="0.6096" layer="1"/>
<smd name="6" x="2.7432" y="-0.635" dx="1.524" dy="0.6096" layer="1"/>
<smd name="4" x="-2.7432" y="-1.905" dx="1.524" dy="0.6096" layer="1"/>
<smd name="5" x="2.7432" y="-1.905" dx="1.524" dy="0.6096" layer="1"/>
<text x="-2.032" y="-4.0005" size="1.27" layer="27" ratio="10">&gt;VALUE</text>
<text x="-2.032" y="2.7305" size="1.27" layer="25" ratio="10">&gt;NAME</text>
<text x="0.762" y="1.143" size="1.016" layer="21" ratio="10">8</text>
<rectangle x1="-2.8702" y1="1.7272" x2="-1.8542" y2="2.0828" layer="51"/>
<rectangle x1="-2.8702" y1="0.4572" x2="-1.8542" y2="0.8128" layer="51"/>
<rectangle x1="-2.8702" y1="-0.8128" x2="-1.8542" y2="-0.4572" layer="51"/>
<rectangle x1="-2.8702" y1="-2.0828" x2="-1.8542" y2="-1.7272" layer="51"/>
<rectangle x1="1.8542" y1="1.7272" x2="2.8702" y2="2.0828" layer="51"/>
<rectangle x1="1.8542" y1="0.4572" x2="2.8702" y2="0.8128" layer="51"/>
<rectangle x1="1.8542" y1="-0.8128" x2="2.8702" y2="-0.4572" layer="51"/>
<rectangle x1="1.8542" y1="-2.0828" x2="2.8702" y2="-1.7272" layer="51"/>
</package>
</packages>
</library>
<library name="rcl">
<description>&lt;b&gt;Resistors, Capacitors, Inductors&lt;/b&gt;&lt;p&gt;
Based on the previous libraries:
&lt;ul&gt;
&lt;li&gt;r.lbr
&lt;li&gt;cap.lbr 
&lt;li&gt;cap-fe.lbr
&lt;li&gt;captant.lbr
&lt;li&gt;polcap.lbr
&lt;li&gt;ipc-smd.lbr
&lt;/ul&gt;
All SMD packages are defined according to the IPC specifications and  CECC&lt;p&gt;
&lt;author&gt;Created by librarian@cadsoft.de&lt;/author&gt;&lt;p&gt;
&lt;p&gt;
for Electrolyt Capacitors see also :&lt;p&gt;
www.bccomponents.com &lt;p&gt;
www.panasonic.com&lt;p&gt;
www.kemet.com&lt;p&gt;
http://www.secc.co.jp/pdf/os_e/2004/e_os_all.pdf &lt;b&gt;(SANYO)&lt;/b&gt;
&lt;p&gt;
for trimmer refence see : &lt;u&gt;www.electrospec-inc.com/cross_references/trimpotcrossref.asp&lt;/u&gt;&lt;p&gt;

&lt;table border=0 cellspacing=0 cellpadding=0 width="100%" cellpaddding=0&gt;
&lt;tr valign="top"&gt;

&lt;! &lt;td width="10"&gt;&amp;nbsp;&lt;/td&gt;
&lt;td width="90%"&gt;

&lt;b&gt;&lt;font color="#0000FF" size="4"&gt;TRIM-POT CROSS REFERENCE&lt;/font&gt;&lt;/b&gt;
&lt;P&gt;
&lt;TABLE BORDER=0 CELLSPACING=1 CELLPADDING=2&gt;
  &lt;TR&gt;
    &lt;TD COLSPAN=8&gt;
      &lt;FONT SIZE=3 FACE=ARIAL&gt;&lt;B&gt;RECTANGULAR MULTI-TURN&lt;/B&gt;&lt;/FONT&gt;
    &lt;/TD&gt;
  &lt;/TR&gt;
  &lt;TR&gt;
    &lt;TD ALIGN=CENTER&gt;
      &lt;B&gt;
      &lt;FONT SIZE=3 FACE=ARIAL color="#FF0000"&gt;BOURNS&lt;/FONT&gt;
      &lt;/B&gt;
    &lt;/TD&gt;
    &lt;TD ALIGN=CENTER&gt;
      &lt;B&gt;
      &lt;FONT SIZE=3 FACE=ARIAL color="#FF0000"&gt;BI&amp;nbsp;TECH&lt;/FONT&gt;
      &lt;/B&gt;
    &lt;/TD&gt;
    &lt;TD ALIGN=CENTER&gt;
      &lt;B&gt;
      &lt;FONT SIZE=3 FACE=ARIAL color="#FF0000"&gt;DALE-VISHAY&lt;/FONT&gt;
      &lt;/B&gt;
    &lt;/TD&gt;
    &lt;TD ALIGN=CENTER&gt;
      &lt;B&gt;
      &lt;FONT SIZE=3 FACE=ARIAL color="#FF0000"&gt;PHILIPS/MEPCO&lt;/FONT&gt;
      &lt;/B&gt;
    &lt;/TD&gt;
    &lt;TD ALIGN=CENTER&gt;
      &lt;B&gt;
      &lt;FONT SIZE=3 FACE=ARIAL color="#FF0000"&gt;MURATA&lt;/FONT&gt;
      &lt;/B&gt;
    &lt;/TD&gt;
    &lt;TD ALIGN=CENTER&gt;
      &lt;B&gt;
      &lt;FONT SIZE=3 FACE=ARIAL color="#FF0000"&gt;PANASONIC&lt;/FONT&gt;
      &lt;/B&gt;
    &lt;/TD&gt;
    &lt;TD ALIGN=CENTER&gt;
      &lt;B&gt;
      &lt;FONT SIZE=3 FACE=ARIAL color="#FF0000"&gt;SPECTROL&lt;/FONT&gt;
      &lt;/B&gt;
    &lt;/TD&gt;
    &lt;TD ALIGN=CENTER&gt;
      &lt;B&gt;
      &lt;FONT SIZE=3 FACE=ARIAL color="#FF0000"&gt;MILSPEC&lt;/FONT&gt;
      &lt;/B&gt;
    &lt;/TD&gt;&lt;TD&gt;&amp;nbsp;&lt;/TD&gt;
  &lt;/TR&gt;
  &lt;TR&gt;
    &lt;TD BGCOLOR="#cccccc" ALIGN=CENTER&gt;&lt;FONT FACE=ARIAL SIZE=3 &gt;
      3005P&lt;BR&gt;
      3006P&lt;BR&gt;
      3006W&lt;BR&gt;
      3006Y&lt;BR&gt;
      3009P&lt;BR&gt;
      3009W&lt;BR&gt;
      3009Y&lt;BR&gt;
      3057J&lt;BR&gt;
      3057L&lt;BR&gt;
      3057P&lt;BR&gt;
      3057Y&lt;BR&gt;
      3059J&lt;BR&gt;
      3059L&lt;BR&gt;
      3059P&lt;BR&gt;
      3059Y&lt;BR&gt;&lt;/FONT&gt;
    &lt;/TD&gt;
    &lt;TD BGCOLOR="#cccccc" ALIGN=CENTER&gt;&lt;FONT FACE=ARIAL SIZE=3&gt;
      -&lt;BR&gt;
      89P&lt;BR&gt;
      89W&lt;BR&gt;
      89X&lt;BR&gt;
      89PH&lt;BR&gt;
      76P&lt;BR&gt;
      89XH&lt;BR&gt;
      78SLT&lt;BR&gt;
      78L&amp;nbsp;ALT&lt;BR&gt;
      56P&amp;nbsp;ALT&lt;BR&gt;
      78P&amp;nbsp;ALT&lt;BR&gt;
      T8S&lt;BR&gt;
      78L&lt;BR&gt;
      56P&lt;BR&gt;
      78P&lt;BR&gt;&lt;/FONT&gt;
    &lt;/TD&gt;
    &lt;TD BGCOLOR="#cccccc" ALIGN=CENTER&gt;&lt;FONT FACE=ARIAL SIZE=3&gt;
      -&lt;BR&gt;
      T18/784&lt;BR&gt;
      783&lt;BR&gt;
      781&lt;BR&gt;
      -&lt;BR&gt;
      -&lt;BR&gt;
      -&lt;BR&gt;
      2199&lt;BR&gt;
      1697/1897&lt;BR&gt;
      1680/1880&lt;BR&gt;
      2187&lt;BR&gt;
      -&lt;BR&gt;
      -&lt;BR&gt;
      -&lt;BR&gt;
      -&lt;BR&gt;&lt;/FONT&gt;
    &lt;/TD&gt;
    &lt;TD BGCOLOR="#cccccc" ALIGN=CENTER&gt;&lt;FONT FACE=ARIAL SIZE=3&gt;
      -&lt;BR&gt;
      8035EKP/CT20/RJ-20P&lt;BR&gt;
      -&lt;BR&gt;
      RJ-20X&lt;BR&gt;
      -&lt;BR&gt;
      -&lt;BR&gt;
      -&lt;BR&gt;
      1211L&lt;BR&gt;
      8012EKQ&amp;nbsp;ALT&lt;BR&gt;
      8012EKR&amp;nbsp;ALT&lt;BR&gt;
      1211P&lt;BR&gt;
      8012EKJ&lt;BR&gt;
      8012EKL&lt;BR&gt;
      8012EKQ&lt;BR&gt;
      8012EKR&lt;BR&gt;&lt;/FONT&gt;
    &lt;/TD&gt;
    &lt;TD BGCOLOR="#cccccc" ALIGN=CENTER&gt;&lt;FONT FACE=ARIAL SIZE=3&gt;
      -&lt;BR&gt;
      2101P&lt;BR&gt;
      2101W&lt;BR&gt;
      2101Y&lt;BR&gt;
      -&lt;BR&gt;
      -&lt;BR&gt;
      -&lt;BR&gt;
      -&lt;BR&gt;
      -&lt;BR&gt;
      -&lt;BR&gt;
      -&lt;BR&gt;
      -&lt;BR&gt;
      2102L&lt;BR&gt;
      2102S&lt;BR&gt;
      2102Y&lt;BR&gt;&lt;/FONT&gt;
    &lt;/TD&gt;
    &lt;TD BGCOLOR="#cccccc" ALIGN=CENTER&gt;&lt;FONT FACE=ARIAL SIZE=3&gt;
      -&lt;BR&gt;
      EVMCOG&lt;BR&gt;
      -&lt;BR&gt;
      -&lt;BR&gt;
      -&lt;BR&gt;
      -&lt;BR&gt;
      -&lt;BR&gt;
      -&lt;BR&gt;
      -&lt;BR&gt;
      -&lt;BR&gt;
      -&lt;BR&gt;
      -&lt;BR&gt;
      -&lt;BR&gt;
      -&lt;BR&gt;
      -&lt;BR&gt;&lt;/FONT&gt;
    &lt;/TD&gt;
    &lt;TD BGCOLOR="#cccccc" ALIGN=CENTER&gt;&lt;FONT FACE=ARIAL SIZE=3&gt;
      -&lt;BR&gt;
      43P&lt;BR&gt;
      43W&lt;BR&gt;
      43Y&lt;BR&gt;
      -&lt;BR&gt;
      -&lt;BR&gt;
      -&lt;BR&gt;
      -&lt;BR&gt;
      40L&lt;BR&gt;
      40P&lt;BR&gt;
      40Y&lt;BR&gt;
      70Y-T602&lt;BR&gt;
      70L&lt;BR&gt;
      70P&lt;BR&gt;
      70Y&lt;BR&gt;&lt;/FONT&gt;
    &lt;/TD&gt;
    &lt;TD BGCOLOR="#cccccc" ALIGN=CENTER&gt;&lt;FONT FACE=ARIAL SIZE=3&gt;
      -&lt;BR&gt;
      -&lt;BR&gt;
      -&lt;BR&gt;
      -&lt;BR&gt;
      -&lt;BR&gt;
      -&lt;BR&gt;
      -&lt;BR&gt;
      -&lt;BR&gt;
      RT/RTR12&lt;BR&gt;
      RT/RTR12&lt;BR&gt;
      RT/RTR12&lt;BR&gt;
      -&lt;BR&gt;
      RJ/RJR12&lt;BR&gt;
      RJ/RJR12&lt;BR&gt;
      RJ/RJR12&lt;BR&gt;&lt;/FONT&gt;
    &lt;/TD&gt;
  &lt;/TR&gt;
  &lt;TR&gt;
    &lt;TD COLSPAN=8&gt;&amp;nbsp;
    &lt;/TD&gt;
  &lt;/TR&gt;
  &lt;TR&gt;
    &lt;TD COLSPAN=8&gt;
      &lt;FONT SIZE=4 FACE=ARIAL&gt;&lt;B&gt;SQUARE MULTI-TURN&lt;/B&gt;&lt;/FONT&gt;
    &lt;/TD&gt;
  &lt;/TR&gt;
  &lt;TR&gt;
   &lt;TD ALIGN=CENTER&gt;
      &lt;FONT SIZE=3 FACE=ARIAL&gt;&lt;B&gt;BOURN&lt;/B&gt;&lt;/FONT&gt;
    &lt;/TD&gt;
    &lt;TD ALIGN=CENTER&gt;
      &lt;FONT SIZE=3 FACE=ARIAL&gt;&lt;B&gt;BI&amp;nbsp;TECH&lt;/B&gt;&lt;/FONT&gt;
    &lt;/TD&gt;
    &lt;TD ALIGN=CENTER&gt;
      &lt;FONT SIZE=3 FACE=ARIAL&gt;&lt;B&gt;DALE-VISHAY&lt;/B&gt;&lt;/FONT&gt;
    &lt;/TD&gt;
    &lt;TD ALIGN=CENTER&gt;
      &lt;FONT SIZE=3 FACE=ARIAL&gt;&lt;B&gt;PHILIPS/MEPCO&lt;/B&gt;&lt;/FONT&gt;
    &lt;/TD&gt;
    &lt;TD ALIGN=CENTER&gt;
      &lt;FONT SIZE=3 FACE=ARIAL&gt;&lt;B&gt;MURATA&lt;/B&gt;&lt;/FONT&gt;
    &lt;/TD&gt;
    &lt;TD ALIGN=CENTER&gt;
      &lt;FONT SIZE=3 FACE=ARIAL&gt;&lt;B&gt;PANASONIC&lt;/B&gt;&lt;/FONT&gt;
    &lt;/TD&gt;
    &lt;TD ALIGN=CENTER&gt;
      &lt;FONT SIZE=3 FACE=ARIAL&gt;&lt;B&gt;SPECTROL&lt;/B&gt;&lt;/FONT&gt;
    &lt;/TD&gt;
    &lt;TD ALIGN=CENTER&gt;
      &lt;FONT SIZE=3 FACE=ARIAL&gt;&lt;B&gt;MILSPEC&lt;/B&gt;&lt;/FONT&gt;
    &lt;/TD&gt;
  &lt;/TR&gt;
  &lt;TR&gt;
    &lt;TD BGCOLOR="#cccccc" ALIGN=CENTER&gt;&lt;FONT FACE=ARIAL SIZE=3&gt;
      3250L&lt;BR&gt;
      3250P&lt;BR&gt;
      3250W&lt;BR&gt;
      3250X&lt;BR&gt;
      3252P&lt;BR&gt;
      3252W&lt;BR&gt;
      3252X&lt;BR&gt;
      3260P&lt;BR&gt;
      3260W&lt;BR&gt;
      3260X&lt;BR&gt;
      3262P&lt;BR&gt;
      3262W&lt;BR&gt;
      3262X&lt;BR&gt;
      3266P&lt;BR&gt;
      3266W&lt;BR&gt;
      3266X&lt;BR&gt;
      3290H&lt;BR&gt;
      3290P&lt;BR&gt;
      3290W&lt;BR&gt;
      3292P&lt;BR&gt;
      3292W&lt;BR&gt;
      3292X&lt;BR&gt;
      3296P&lt;BR&gt;
      3296W&lt;BR&gt;
      3296X&lt;BR&gt;
      3296Y&lt;BR&gt;
      3296Z&lt;BR&gt;
      3299P&lt;BR&gt;
      3299W&lt;BR&gt;
      3299X&lt;BR&gt;
      3299Y&lt;BR&gt;
      3299Z&lt;BR&gt;&lt;/FONT&gt;
    &lt;/TD&gt;
    &lt;TD BGCOLOR="#cccccc" ALIGN=CENTER&gt;&lt;FONT FACE=ARIAL SIZE=3&gt;
      -&lt;BR&gt;
      66P&amp;nbsp;ALT&lt;BR&gt;
      66W&amp;nbsp;ALT&lt;BR&gt;
      66X&amp;nbsp;ALT&lt;BR&gt;
      66P&amp;nbsp;ALT&lt;BR&gt;
      66W&amp;nbsp;ALT&lt;BR&gt;
      66X&amp;nbsp;ALT&lt;BR&gt;
      -&lt;BR&gt;
      64W&amp;nbsp;ALT&lt;BR&gt;
      -&lt;BR&gt;
      64P&amp;nbsp;ALT&lt;BR&gt;
      64W&amp;nbsp;ALT&lt;BR&gt;
      64X&amp;nbsp;ALT&lt;BR&gt;
      64P&lt;BR&gt;
      64W&lt;BR&gt;
      64X&lt;BR&gt;
      66X&amp;nbsp;ALT&lt;BR&gt;
      66P&amp;nbsp;ALT&lt;BR&gt;
      66W&amp;nbsp;ALT&lt;BR&gt;
      66P&lt;BR&gt;
      66W&lt;BR&gt;
      66X&lt;BR&gt;
      67P&lt;BR&gt;
      67W&lt;BR&gt;
      67X&lt;BR&gt;
      67Y&lt;BR&gt;
      67Z&lt;BR&gt;
      68P&lt;BR&gt;
      68W&lt;BR&gt;
      68X&lt;BR&gt;
      67Y&amp;nbsp;ALT&lt;BR&gt;
      67Z&amp;nbsp;ALT&lt;BR&gt;&lt;/FONT&gt;
    &lt;/TD&gt;
    &lt;TD BGCOLOR="#cccccc" ALIGN=CENTER&gt;&lt;FONT FACE=ARIAL SIZE=3&gt;
      5050&lt;BR&gt;
      5091&lt;BR&gt;
      5080&lt;BR&gt;
      5087&lt;BR&gt;
      -&lt;BR&gt;
      -&lt;BR&gt;
      -&lt;BR&gt;
      -&lt;BR&gt;
      -&lt;BR&gt;
      -&lt;BR&gt;
      -&lt;BR&gt;
      T63YB&lt;BR&gt;
      T63XB&lt;BR&gt;
      -&lt;BR&gt;
      -&lt;BR&gt;
      -&lt;BR&gt;
      5887&lt;BR&gt;
      5891&lt;BR&gt;
      5880&lt;BR&gt;
      -&lt;BR&gt;
      -&lt;BR&gt;
      -&lt;BR&gt;
      T93Z&lt;BR&gt;
      T93YA&lt;BR&gt;
      T93XA&lt;BR&gt;
      T93YB&lt;BR&gt;
      T93XB&lt;BR&gt;
      -&lt;BR&gt;
      -&lt;BR&gt;
      -&lt;BR&gt;
      -&lt;BR&gt;
      -&lt;BR&gt;&lt;/FONT&gt;
    &lt;/TD&gt;
    &lt;TD BGCOLOR="#cccccc" ALIGN=CENTER&gt;&lt;FONT FACE=ARIAL SIZE=3&gt;
      -&lt;BR&gt;
      -&lt;BR&gt;
      -&lt;BR&gt;
      -&lt;BR&gt;
      -&lt;BR&gt;
      -&lt;BR&gt;
      -&lt;BR&gt;
      -&lt;BR&gt;
      -&lt;BR&gt;
      -&lt;BR&gt;
      8026EKP&lt;BR&gt;
      8026EKW&lt;BR&gt;
      8026EKM&lt;BR&gt;
      8026EKP&lt;BR&gt;
      8026EKB&lt;BR&gt;
      8026EKM&lt;BR&gt;
      1309X&lt;BR&gt;
      1309P&lt;BR&gt;
      1309W&lt;BR&gt;
      8024EKP&lt;BR&gt;
      8024EKW&lt;BR&gt;
      8024EKN&lt;BR&gt;
      RJ-9P/CT9P&lt;BR&gt;
      RJ-9W&lt;BR&gt;
      RJ-9X&lt;BR&gt;
      -&lt;BR&gt;
      -&lt;BR&gt;
      -&lt;BR&gt;
      -&lt;BR&gt;
      -&lt;BR&gt;
      -&lt;BR&gt;
      -&lt;BR&gt;&lt;/FONT&gt;
    &lt;/TD&gt;
    &lt;TD BGCOLOR="#cccccc" ALIGN=CENTER&gt;&lt;FONT FACE=ARIAL SIZE=3&gt;
      -&lt;BR&gt;
      -&lt;BR&gt;
      -&lt;BR&gt;
      -&lt;BR&gt;
      -&lt;BR&gt;
      -&lt;BR&gt;
      -&lt;BR&gt;
      -&lt;BR&gt;
      -&lt;BR&gt;
      -&lt;BR&gt;
      3103P&lt;BR&gt;
      3103Y&lt;BR&gt;
      3103Z&lt;BR&gt;
      3103P&lt;BR&gt;
      3103Y&lt;BR&gt;
      3103Z&lt;BR&gt;
      -&lt;BR&gt;
      -&lt;BR&gt;
      -&lt;BR&gt;
      -&lt;BR&gt;
      -&lt;BR&gt;
      -&lt;BR&gt;
      3105P/3106P&lt;BR&gt;
      3105W/3106W&lt;BR&gt;
      3105X/3106X&lt;BR&gt;
      3105Y/3106Y&lt;BR&gt;
      3105Z/3105Z&lt;BR&gt;
      3102P&lt;BR&gt;
      3102W&lt;BR&gt;
      3102X&lt;BR&gt;
      3102Y&lt;BR&gt;
      3102Z&lt;BR&gt;&lt;/FONT&gt;
    &lt;/TD&gt;
    &lt;TD BGCOLOR="#cccccc" ALIGN=CENTER&gt;&lt;FONT FACE=ARIAL SIZE=3&gt;
      -&lt;BR&gt;
      -&lt;BR&gt;
      -&lt;BR&gt;
      -&lt;BR&gt;
      -&lt;BR&gt;
      -&lt;BR&gt;
      -&lt;BR&gt;
      -&lt;BR&gt;
      -&lt;BR&gt;
      -&lt;BR&gt;
      -&lt;BR&gt;
      -&lt;BR&gt;
      -&lt;BR&gt;
      -&lt;BR&gt;
      -&lt;BR&gt;
      -&lt;BR&gt;
      -&lt;BR&gt;
      -&lt;BR&gt;
      -&lt;BR&gt;
      -&lt;BR&gt;
      -&lt;BR&gt;
      -&lt;BR&gt;
      EVMCBG&lt;BR&gt;
      EVMCCG&lt;BR&gt;
      -&lt;BR&gt;
      -&lt;BR&gt;
      -&lt;BR&gt;
      -&lt;BR&gt;
      -&lt;BR&gt;
      -&lt;BR&gt;
      -&lt;BR&gt;
      -&lt;BR&gt;&lt;/FONT&gt;
    &lt;/TD&gt;
    &lt;TD BGCOLOR="#cccccc" ALIGN=CENTER&gt;&lt;FONT FACE=ARIAL SIZE=3&gt;
      55-1-X&lt;BR&gt;
      55-4-X&lt;BR&gt;
      55-3-X&lt;BR&gt;
      55-2-X&lt;BR&gt;
      -&lt;BR&gt;
      -&lt;BR&gt;
      -&lt;BR&gt;
      -&lt;BR&gt;
      -&lt;BR&gt;
      -&lt;BR&gt;
      -&lt;BR&gt;
      -&lt;BR&gt;
      -&lt;BR&gt;
      -&lt;BR&gt;
      -&lt;BR&gt;
      -&lt;BR&gt;
      50-2-X&lt;BR&gt;
      50-4-X&lt;BR&gt;
      50-3-X&lt;BR&gt;
      -&lt;BR&gt;
      -&lt;BR&gt;
      -&lt;BR&gt;
      64P&lt;BR&gt;
      64W&lt;BR&gt;
      64X&lt;BR&gt;
      64Y&lt;BR&gt;
      64Z&lt;BR&gt;
      -&lt;BR&gt;
      -&lt;BR&gt;
      -&lt;BR&gt;
      -&lt;BR&gt;
      -&lt;BR&gt;&lt;/FONT&gt;
    &lt;/TD&gt;
    &lt;TD BGCOLOR="#cccccc" ALIGN=CENTER&gt;&lt;FONT FACE=ARIAL SIZE=3&gt;
      RT/RTR22&lt;BR&gt;
      RT/RTR22&lt;BR&gt;
      RT/RTR22&lt;BR&gt;
      RT/RTR22&lt;BR&gt;
      RJ/RJR22&lt;BR&gt;
      RJ/RJR22&lt;BR&gt;
      RJ/RJR22&lt;BR&gt;
      RT/RTR26&lt;BR&gt;
      RT/RTR26&lt;BR&gt;
      RT/RTR26&lt;BR&gt;
      RJ/RJR26&lt;BR&gt;
      RJ/RJR26&lt;BR&gt;
      RJ/RJR26&lt;BR&gt;
      RJ/RJR26&lt;BR&gt;
      RJ/RJR26&lt;BR&gt;
      RJ/RJR26&lt;BR&gt;
      RT/RTR24&lt;BR&gt;
      RT/RTR24&lt;BR&gt;
      RT/RTR24&lt;BR&gt;
      RJ/RJR24&lt;BR&gt;
      RJ/RJR24&lt;BR&gt;
      RJ/RJR24&lt;BR&gt;
      RJ/RJR24&lt;BR&gt;
      RJ/RJR24&lt;BR&gt;
      RJ/RJR24&lt;BR&gt;
      -&lt;BR&gt;
      -&lt;BR&gt;
      -&lt;BR&gt;
      -&lt;BR&gt;
      -&lt;BR&gt;
      -&lt;BR&gt;
      -&lt;BR&gt;&lt;/FONT&gt;
    &lt;/TD&gt;
  &lt;/TR&gt;
  &lt;TR&gt;
    &lt;TD COLSPAN=8&gt;&amp;nbsp;
    &lt;/TD&gt;
  &lt;/TR&gt;
  &lt;TR&gt;
    &lt;TD COLSPAN=8&gt;
      &lt;FONT SIZE=4 FACE=ARIAL&gt;&lt;B&gt;SINGLE TURN&lt;/B&gt;&lt;/FONT&gt;
    &lt;/TD&gt;
  &lt;/TR&gt;
  &lt;TR&gt;
    &lt;TD ALIGN=CENTER&gt;
      &lt;FONT SIZE=3 FACE=ARIAL&gt;&lt;B&gt;BOURN&lt;/B&gt;&lt;/FONT&gt;
    &lt;/TD&gt;
    &lt;TD ALIGN=CENTER&gt;
      &lt;FONT SIZE=3 FACE=ARIAL&gt;&lt;B&gt;BI&amp;nbsp;TECH&lt;/B&gt;&lt;/FONT&gt;
    &lt;/TD&gt;
    &lt;TD ALIGN=CENTER&gt;
      &lt;FONT SIZE=3 FACE=ARIAL&gt;&lt;B&gt;DALE-VISHAY&lt;/B&gt;&lt;/FONT&gt;
    &lt;/TD&gt;
    &lt;TD ALIGN=CENTER&gt;
      &lt;FONT SIZE=3 FACE=ARIAL&gt;&lt;B&gt;PHILIPS/MEPCO&lt;/B&gt;&lt;/FONT&gt;
    &lt;/TD&gt;
    &lt;TD ALIGN=CENTER&gt;
      &lt;FONT SIZE=3 FACE=ARIAL&gt;&lt;B&gt;MURATA&lt;/B&gt;&lt;/FONT&gt;
    &lt;/TD&gt;
    &lt;TD ALIGN=CENTER&gt;
      &lt;FONT SIZE=3 FACE=ARIAL&gt;&lt;B&gt;PANASONIC&lt;/B&gt;&lt;/FONT&gt;
    &lt;/TD&gt;
    &lt;TD ALIGN=CENTER&gt;
      &lt;FONT SIZE=3 FACE=ARIAL&gt;&lt;B&gt;SPECTROL&lt;/B&gt;&lt;/FONT&gt;
    &lt;/TD&gt;
    &lt;TD ALIGN=CENTER&gt;
      &lt;FONT SIZE=3 FACE=ARIAL&gt;&lt;B&gt;MILSPEC&lt;/B&gt;&lt;/FONT&gt;
    &lt;/TD&gt;
  &lt;/TR&gt;
  &lt;TR&gt;
    &lt;TD BGCOLOR="#cccccc" ALIGN=CENTER&gt;&lt;FONT FACE=ARIAL SIZE=3&gt;
      3323P&lt;BR&gt;
      3323S&lt;BR&gt;
      3323W&lt;BR&gt;
      3329H&lt;BR&gt;
      3329P&lt;BR&gt;
      3329W&lt;BR&gt;
      3339H&lt;BR&gt;
      3339P&lt;BR&gt;
      3339W&lt;BR&gt;
      3352E&lt;BR&gt;
      3352H&lt;BR&gt;
      3352K&lt;BR&gt;
      3352P&lt;BR&gt;
      3352T&lt;BR&gt;
      3352V&lt;BR&gt;
      3352W&lt;BR&gt;
      3362H&lt;BR&gt;
      3362M&lt;BR&gt;
      3362P&lt;BR&gt;
      3362R&lt;BR&gt;
      3362S&lt;BR&gt;
      3362U&lt;BR&gt;
      3362W&lt;BR&gt;
      3362X&lt;BR&gt;
      3386B&lt;BR&gt;
      3386C&lt;BR&gt;
      3386F&lt;BR&gt;
      3386H&lt;BR&gt;
      3386K&lt;BR&gt;
      3386M&lt;BR&gt;
      3386P&lt;BR&gt;
      3386S&lt;BR&gt;
      3386W&lt;BR&gt;
      3386X&lt;BR&gt;&lt;/FONT&gt;
    &lt;/TD&gt;
    &lt;TD BGCOLOR="#cccccc" ALIGN=CENTER&gt;&lt;FONT FACE=ARIAL SIZE=3&gt;
      25P&lt;BR&gt;
      25S&lt;BR&gt;
      25RX&lt;BR&gt;
      82P&lt;BR&gt;
      82M&lt;BR&gt;
      82PA&lt;BR&gt;
      -&lt;BR&gt;
      -&lt;BR&gt;
      -&lt;BR&gt;
      91E&lt;BR&gt;
      91X&lt;BR&gt;
      91T&lt;BR&gt;
      91B&lt;BR&gt;
      91A&lt;BR&gt;
      91V&lt;BR&gt;
      91W&lt;BR&gt;
      25W&lt;BR&gt;
      25V&lt;BR&gt;
      25P&lt;BR&gt;
      -&lt;BR&gt;
      25S&lt;BR&gt;
      25U&lt;BR&gt;
      25RX&lt;BR&gt;
      25X&lt;BR&gt;
      72XW&lt;BR&gt;
      72XL&lt;BR&gt;
      72PM&lt;BR&gt;
      72RX&lt;BR&gt;
      -&lt;BR&gt;
      72PX&lt;BR&gt;
      72P&lt;BR&gt;
      72RXW&lt;BR&gt;
      72RXL&lt;BR&gt;
      72X&lt;BR&gt;&lt;/FONT&gt;
    &lt;/TD&gt;
    &lt;TD BGCOLOR="#cccccc" ALIGN=CENTER&gt;&lt;FONT FACE=ARIAL SIZE=3&gt;
      -&lt;BR&gt;
      -&lt;BR&gt;
      -&lt;BR&gt;
      T7YB&lt;BR&gt;
      T7YA&lt;BR&gt;
      -&lt;BR&gt;
      -&lt;BR&gt;
      -&lt;BR&gt;
      -&lt;BR&gt;
      -&lt;BR&gt;
      -&lt;BR&gt;
      -&lt;BR&gt;
      -&lt;BR&gt;
      -&lt;BR&gt;
      -&lt;BR&gt;
      -&lt;BR&gt;
      -&lt;BR&gt;
      TXD&lt;BR&gt;
      TYA&lt;BR&gt;
      TYP&lt;BR&gt;
      -&lt;BR&gt;
      TYD&lt;BR&gt;
      TX&lt;BR&gt;
      -&lt;BR&gt;
      150SX&lt;BR&gt;
      100SX&lt;BR&gt;
      102T&lt;BR&gt;
      101S&lt;BR&gt;
      190T&lt;BR&gt;
      150TX&lt;BR&gt;
      101&lt;BR&gt;
      -&lt;BR&gt;
      -&lt;BR&gt;
      101SX&lt;BR&gt;&lt;/FONT&gt;
    &lt;/TD&gt;
    &lt;TD BGCOLOR="#cccccc" ALIGN=CENTER&gt;&lt;FONT FACE=ARIAL SIZE=3&gt;
      ET6P&lt;BR&gt;
      ET6S&lt;BR&gt;
      ET6X&lt;BR&gt;
      RJ-6W/8014EMW&lt;BR&gt;
      RJ-6P/8014EMP&lt;BR&gt;
      RJ-6X/8014EMX&lt;BR&gt;
      TM7W&lt;BR&gt;
      TM7P&lt;BR&gt;
      TM7X&lt;BR&gt;
      -&lt;BR&gt;
      8017SMS&lt;BR&gt;
      -&lt;BR&gt;
      8017SMB&lt;BR&gt;
      8017SMA&lt;BR&gt;
      -&lt;BR&gt;
      -&lt;BR&gt;
      CT-6W&lt;BR&gt;
      CT-6H&lt;BR&gt;
      CT-6P&lt;BR&gt;
      CT-6R&lt;BR&gt;
      -&lt;BR&gt;
      CT-6V&lt;BR&gt;
      CT-6X&lt;BR&gt;
      -&lt;BR&gt;
      -&lt;BR&gt;
      8038EKV&lt;BR&gt;
      -&lt;BR&gt;
      8038EKX&lt;BR&gt;
      -&lt;BR&gt;
      -&lt;BR&gt;
      8038EKP&lt;BR&gt;
      8038EKZ&lt;BR&gt;
      8038EKW&lt;BR&gt;
      -&lt;BR&gt;&lt;/FONT&gt;
    &lt;/TD&gt;
    &lt;TD BGCOLOR="#cccccc" ALIGN=CENTER&gt;&lt;FONT FACE=ARIAL SIZE=3&gt;
      -&lt;BR&gt;
      -&lt;BR&gt;
      -&lt;BR&gt;
      3321H&lt;BR&gt;
      3321P&lt;BR&gt;
      3321N&lt;BR&gt;
      1102H&lt;BR&gt;
      1102P&lt;BR&gt;
      1102T&lt;BR&gt;
      RVA0911V304A&lt;BR&gt;
      -&lt;BR&gt;
      RVA0911H413A&lt;BR&gt;
      RVG0707V100A&lt;BR&gt;
      RVA0607V(H)306A&lt;BR&gt;
      RVA1214H213A&lt;BR&gt;
      -&lt;BR&gt;
      -&lt;BR&gt;
      -&lt;BR&gt;
      -&lt;BR&gt;
      -&lt;BR&gt;
      -&lt;BR&gt;
      -&lt;BR&gt;
      -&lt;BR&gt;
      -&lt;BR&gt;
      3104B&lt;BR&gt;
      3104C&lt;BR&gt;
      3104F&lt;BR&gt;
      3104H&lt;BR&gt;
      -&lt;BR&gt;
      3104M&lt;BR&gt;
      3104P&lt;BR&gt;
      3104S&lt;BR&gt;
      3104W&lt;BR&gt;
      3104X&lt;BR&gt;&lt;/FONT&gt;
    &lt;/TD&gt;
    &lt;TD BGCOLOR="#cccccc" ALIGN=CENTER&gt;&lt;FONT FACE=ARIAL SIZE=3&gt;
      EVMQ0G&lt;BR&gt;
      EVMQIG&lt;BR&gt;
      EVMQ3G&lt;BR&gt;
      EVMS0G&lt;BR&gt;
      EVMQ0G&lt;BR&gt;
      EVMG0G&lt;BR&gt;
      -&lt;BR&gt;
      -&lt;BR&gt;
      -&lt;BR&gt;
      EVMK4GA00B&lt;BR&gt;
      EVM30GA00B&lt;BR&gt;
      EVMK0GA00B&lt;BR&gt;
      EVM38GA00B&lt;BR&gt;
      EVMB6&lt;BR&gt;
      EVLQ0&lt;BR&gt;
      -&lt;BR&gt;
      EVMMSG&lt;BR&gt;
      EVMMBG&lt;BR&gt;
      EVMMAG&lt;BR&gt;
      -&lt;BR&gt;
      -&lt;BR&gt;
      EVMMCS&lt;BR&gt;
      -&lt;BR&gt;
      -&lt;BR&gt;
      -&lt;BR&gt;
      -&lt;BR&gt;
      -&lt;BR&gt;
      EVMM1&lt;BR&gt;
      -&lt;BR&gt;
      -&lt;BR&gt;
      EVMM0&lt;BR&gt;
      -&lt;BR&gt;
      -&lt;BR&gt;
      EVMM3&lt;BR&gt;&lt;/FONT&gt;
    &lt;/TD&gt;
    &lt;TD BGCOLOR="#cccccc" ALIGN=CENTER&gt;&lt;FONT FACE=ARIAL SIZE=3&gt;
      -&lt;BR&gt;
      -&lt;BR&gt;
      -&lt;BR&gt;
      62-3-1&lt;BR&gt;
      62-1-2&lt;BR&gt;
      -&lt;BR&gt;
      -&lt;BR&gt;
      -&lt;BR&gt;
      -&lt;BR&gt;
      -&lt;BR&gt;
      -&lt;BR&gt;
      -&lt;BR&gt;
      -&lt;BR&gt;
      -&lt;BR&gt;
      -&lt;BR&gt;
      -&lt;BR&gt;
      67R&lt;BR&gt;
      -&lt;BR&gt;
      67P&lt;BR&gt;
      -&lt;BR&gt;
      -&lt;BR&gt;
      -&lt;BR&gt;
      -&lt;BR&gt;
      67X&lt;BR&gt;
      63V&lt;BR&gt;
      63S&lt;BR&gt;
      63M&lt;BR&gt;
      -&lt;BR&gt;
      -&lt;BR&gt;
      63H&lt;BR&gt;
      63P&lt;BR&gt;
      -&lt;BR&gt;
      -&lt;BR&gt;
      63X&lt;BR&gt;&lt;/FONT&gt;
    &lt;/TD&gt;
    &lt;TD BGCOLOR="#cccccc" ALIGN=CENTER&gt;&lt;FONT FACE=ARIAL SIZE=3&gt;
      -&lt;BR&gt;
      -&lt;BR&gt;
      -&lt;BR&gt;
      RJ/RJR50&lt;BR&gt;
      RJ/RJR50&lt;BR&gt;
      RJ/RJR50&lt;BR&gt;
      -&lt;BR&gt;
      -&lt;BR&gt;
      -&lt;BR&gt;
      -&lt;BR&gt;
      -&lt;BR&gt;
      -&lt;BR&gt;
      -&lt;BR&gt;
      -&lt;BR&gt;
      -&lt;BR&gt;
      -&lt;BR&gt;
      -&lt;BR&gt;
      -&lt;BR&gt;
      -&lt;BR&gt;
      -&lt;BR&gt;
      -&lt;BR&gt;
      -&lt;BR&gt;
      -&lt;BR&gt;
      -&lt;BR&gt;
      -&lt;BR&gt;
      -&lt;BR&gt;
      -&lt;BR&gt;
      -&lt;BR&gt;
      -&lt;BR&gt;
      -&lt;BR&gt;
      -&lt;BR&gt;
      -&lt;BR&gt;
      -&lt;BR&gt;
      -&lt;BR&gt;&lt;/FONT&gt;
    &lt;/TD&gt;
  &lt;/TR&gt;
&lt;/TABLE&gt;
&lt;P&gt;&amp;nbsp;&lt;P&gt;
&lt;TABLE BORDER=0 CELLSPACING=1 CELLPADDING=3&gt;
  &lt;TR&gt;
    &lt;TD COLSPAN=7&gt;
      &lt;FONT color="#0000FF" SIZE=4 FACE=ARIAL&gt;&lt;B&gt;SMD TRIM-POT CROSS REFERENCE&lt;/B&gt;&lt;/FONT&gt;
      &lt;P&gt;
      &lt;FONT SIZE=4 FACE=ARIAL&gt;&lt;B&gt;MULTI-TURN&lt;/B&gt;&lt;/FONT&gt;
    &lt;/TD&gt;
  &lt;/TR&gt;
  &lt;TR&gt;
    &lt;TD&gt;
      &lt;FONT SIZE=3 FACE=ARIAL&gt;&lt;B&gt;BOURNS&lt;/B&gt;&lt;/FONT&gt;
    &lt;/TD&gt;
    &lt;TD&gt;
      &lt;FONT SIZE=3 FACE=ARIAL&gt;&lt;B&gt;BI&amp;nbsp;TECH&lt;/B&gt;&lt;/FONT&gt;
    &lt;/TD&gt;
    &lt;TD&gt;
      &lt;FONT SIZE=3 FACE=ARIAL&gt;&lt;B&gt;DALE-VISHAY&lt;/B&gt;&lt;/FONT&gt;
    &lt;/TD&gt;
    &lt;TD&gt;
      &lt;FONT SIZE=3 FACE=ARIAL&gt;&lt;B&gt;PHILIPS/MEPCO&lt;/B&gt;&lt;/FONT&gt;
    &lt;/TD&gt;
    &lt;TD&gt;
      &lt;FONT SIZE=3 FACE=ARIAL&gt;&lt;B&gt;PANASONIC&lt;/B&gt;&lt;/FONT&gt;
    &lt;/TD&gt;
    &lt;TD&gt;
      &lt;FONT SIZE=3 FACE=ARIAL&gt;&lt;B&gt;TOCOS&lt;/B&gt;&lt;/FONT&gt;
    &lt;/TD&gt;
    &lt;TD&gt;
      &lt;FONT SIZE=3 FACE=ARIAL&gt;&lt;B&gt;AUX/KYOCERA&lt;/B&gt;&lt;/FONT&gt;
    &lt;/TD&gt;
  &lt;/TR&gt;
  &lt;TR&gt;
    &lt;TD BGCOLOR="#cccccc" ALIGN=CENTER&gt;&lt;FONT FACE=ARIAL SIZE=3&gt;
      3224G&lt;BR&gt;
      3224J&lt;BR&gt;
      3224W&lt;BR&gt;
      3269P&lt;BR&gt;
      3269W&lt;BR&gt;
      3269X&lt;BR&gt;&lt;/FONT&gt;
    &lt;/TD&gt;
    &lt;TD BGCOLOR="#cccccc" ALIGN=CENTER&gt;&lt;FONT FACE=ARIAL SIZE=3&gt;
      44G&lt;BR&gt;
      44J&lt;BR&gt;
      44W&lt;BR&gt;
      84P&lt;BR&gt;
      84W&lt;BR&gt;
      84X&lt;BR&gt;&lt;/FONT&gt;
    &lt;/TD&gt;
    &lt;TD BGCOLOR="#cccccc" ALIGN=CENTER&gt;&lt;FONT FACE=ARIAL SIZE=3&gt;
      -&lt;BR&gt;
      -&lt;BR&gt;
      -&lt;BR&gt;
      ST63Z&lt;BR&gt;
      ST63Y&lt;BR&gt;
      -&lt;BR&gt;&lt;/FONT&gt;
    &lt;/TD&gt;
    &lt;TD BGCOLOR="#cccccc" ALIGN=CENTER&gt;&lt;FONT FACE=ARIAL SIZE=3&gt;
      -&lt;BR&gt;
      -&lt;BR&gt;
      -&lt;BR&gt;
      ST5P&lt;BR&gt;
      ST5W&lt;BR&gt;
      ST5X&lt;BR&gt;&lt;/FONT&gt;
    &lt;/TD&gt;
    &lt;TD BGCOLOR="#cccccc" ALIGN=CENTER&gt;&lt;FONT FACE=ARIAL SIZE=3&gt;
      -&lt;BR&gt;
      -&lt;BR&gt;
      -&lt;BR&gt;
      -&lt;BR&gt;
      -&lt;BR&gt;
      -&lt;BR&gt;&lt;/FONT&gt;
    &lt;/TD&gt;
    &lt;TD BGCOLOR="#cccccc" ALIGN=CENTER&gt;&lt;FONT FACE=ARIAL SIZE=3&gt;
      -&lt;BR&gt;
      -&lt;BR&gt;
      -&lt;BR&gt;
      -&lt;BR&gt;
      -&lt;BR&gt;
      -&lt;BR&gt;&lt;/FONT&gt;
    &lt;/TD&gt;
    &lt;TD BGCOLOR="#cccccc" ALIGN=CENTER&gt;&lt;FONT FACE=ARIAL SIZE=3&gt;
      -&lt;BR&gt;
      -&lt;BR&gt;
      -&lt;BR&gt;
      -&lt;BR&gt;
      -&lt;BR&gt;
      -&lt;BR&gt;&lt;/FONT&gt;
    &lt;/TD&gt;
  &lt;/TR&gt;
  &lt;TR&gt;
    &lt;TD COLSPAN=7&gt;&amp;nbsp;
    &lt;/TD&gt;
  &lt;/TR&gt;
  &lt;TR&gt;
    &lt;TD COLSPAN=7&gt;
      &lt;FONT SIZE=4 FACE=ARIAL&gt;&lt;B&gt;SINGLE TURN&lt;/B&gt;&lt;/FONT&gt;
    &lt;/TD&gt;
  &lt;/TR&gt;
  &lt;TR&gt;
    &lt;TD&gt;
      &lt;FONT SIZE=3 FACE=ARIAL&gt;&lt;B&gt;BOURNS&lt;/B&gt;&lt;/FONT&gt;
    &lt;/TD&gt;
    &lt;TD&gt;
      &lt;FONT SIZE=3 FACE=ARIAL&gt;&lt;B&gt;BI&amp;nbsp;TECH&lt;/B&gt;&lt;/FONT&gt;
    &lt;/TD&gt;
    &lt;TD&gt;
      &lt;FONT SIZE=3 FACE=ARIAL&gt;&lt;B&gt;DALE-VISHAY&lt;/B&gt;&lt;/FONT&gt;
    &lt;/TD&gt;
    &lt;TD&gt;
      &lt;FONT SIZE=3 FACE=ARIAL&gt;&lt;B&gt;PHILIPS/MEPCO&lt;/B&gt;&lt;/FONT&gt;
    &lt;/TD&gt;
    &lt;TD&gt;
      &lt;FONT SIZE=3 FACE=ARIAL&gt;&lt;B&gt;PANASONIC&lt;/B&gt;&lt;/FONT&gt;
    &lt;/TD&gt;
    &lt;TD&gt;
      &lt;FONT SIZE=3 FACE=ARIAL&gt;&lt;B&gt;TOCOS&lt;/B&gt;&lt;/FONT&gt;
    &lt;/TD&gt;
    &lt;TD&gt;
      &lt;FONT SIZE=3 FACE=ARIAL&gt;&lt;B&gt;AUX/KYOCERA&lt;/B&gt;&lt;/FONT&gt;
    &lt;/TD&gt;
  &lt;/TR&gt;
  &lt;TR&gt;
    &lt;TD BGCOLOR="#cccccc" ALIGN=CENTER&gt;&lt;FONT FACE=ARIAL SIZE=3&gt;
      3314G&lt;BR&gt;
      3314J&lt;BR&gt;
      3364A/B&lt;BR&gt;
      3364C/D&lt;BR&gt;
      3364W/X&lt;BR&gt;
      3313G&lt;BR&gt;
      3313J&lt;BR&gt;&lt;/FONT&gt;
    &lt;/TD&gt;
    &lt;TD BGCOLOR="#cccccc" ALIGN=CENTER&gt;&lt;FONT FACE=ARIAL SIZE=3&gt;
      23B&lt;BR&gt;
      23A&lt;BR&gt;
      21X&lt;BR&gt;
      21W&lt;BR&gt;
      -&lt;BR&gt;
      22B&lt;BR&gt;
      22A&lt;BR&gt;&lt;/FONT&gt;
    &lt;/TD&gt;
    &lt;TD BGCOLOR="#cccccc" ALIGN=CENTER&gt;&lt;FONT FACE=ARIAL SIZE=3&gt;
      ST5YL/ST53YL&lt;BR&gt;
      ST5YJ/5T53YJ&lt;BR&gt;
      ST-23A&lt;BR&gt;
      ST-22B&lt;BR&gt;
      ST-22&lt;BR&gt;
      -&lt;BR&gt;
      -&lt;BR&gt;&lt;/FONT&gt;
    &lt;/TD&gt;
    &lt;TD BGCOLOR="#cccccc" ALIGN=CENTER&gt;&lt;FONT FACE=ARIAL SIZE=3&gt;
      ST-4B&lt;BR&gt;
      ST-4A&lt;BR&gt;
      -&lt;BR&gt;
      -&lt;BR&gt;
      -&lt;BR&gt;
      ST-3B&lt;BR&gt;
      ST-3A&lt;BR&gt;&lt;/FONT&gt;
    &lt;/TD&gt;
    &lt;TD BGCOLOR="#cccccc" ALIGN=CENTER&gt;&lt;FONT FACE=ARIAL SIZE=3&gt;
      -&lt;BR&gt;
      EVM-6YS&lt;BR&gt;
      EVM-1E&lt;BR&gt;
      EVM-1G&lt;BR&gt;
      EVM-1D&lt;BR&gt;
      -&lt;BR&gt;
      -&lt;BR&gt;&lt;/FONT&gt;
    &lt;/TD&gt;
    &lt;TD BGCOLOR="#cccccc" ALIGN=CENTER&gt;&lt;FONT FACE=ARIAL SIZE=3&gt;
      G4B&lt;BR&gt;
      G4A&lt;BR&gt;
      TR04-3S1&lt;BR&gt;
      TRG04-2S1&lt;BR&gt;
      -&lt;BR&gt;
      -&lt;BR&gt;
      -&lt;BR&gt;&lt;/FONT&gt;
    &lt;/TD&gt;
    &lt;TD BGCOLOR="#cccccc" ALIGN=CENTER&gt;&lt;FONT FACE=ARIAL SIZE=3&gt;
      -&lt;BR&gt;
      -&lt;BR&gt;
      DVR-43A&lt;BR&gt;
      CVR-42C&lt;BR&gt;
      CVR-42A/C&lt;BR&gt;
      -&lt;BR&gt;
      -&lt;BR&gt;&lt;/FONT&gt;
    &lt;/TD&gt;
  &lt;/TR&gt;
&lt;/TABLE&gt;
&lt;P&gt;
&lt;FONT SIZE=4 FACE=ARIAL&gt;&lt;B&gt;ALT =&amp;nbsp;ALTERNATE&lt;/B&gt;&lt;/FONT&gt;
&lt;P&gt;

&amp;nbsp;
&lt;P&gt;
&lt;/td&gt;
&lt;/tr&gt;
&lt;/table&gt;</description>
<packages>
<package name="C0603">
<description>&lt;b&gt;CAPACITOR&lt;/b&gt;</description>
<wire x1="-1.473" y1="0.983" x2="1.473" y2="0.983" width="0.0508" layer="39"/>
<wire x1="1.473" y1="0.983" x2="1.473" y2="-0.983" width="0.0508" layer="39"/>
<wire x1="1.473" y1="-0.983" x2="-1.473" y2="-0.983" width="0.0508" layer="39"/>
<wire x1="-1.473" y1="-0.983" x2="-1.473" y2="0.983" width="0.0508" layer="39"/>
<wire x1="-0.356" y1="0.432" x2="0.356" y2="0.432" width="0.1016" layer="51"/>
<wire x1="-0.356" y1="-0.419" x2="0.356" y2="-0.419" width="0.1016" layer="51"/>
<smd name="1" x="-0.85" y="0" dx="1.1" dy="1" layer="1"/>
<smd name="2" x="0.85" y="0" dx="1.1" dy="1" layer="1"/>
<text x="-0.635" y="0.635" size="1.27" layer="25">&gt;NAME</text>
<text x="-0.635" y="-1.905" size="1.27" layer="27">&gt;VALUE</text>
<rectangle x1="-0.8382" y1="-0.4699" x2="-0.3381" y2="0.4801" layer="51"/>
<rectangle x1="0.3302" y1="-0.4699" x2="0.8303" y2="0.4801" layer="51"/>
<rectangle x1="-0.1999" y1="-0.3" x2="0.1999" y2="0.3" layer="35"/>
</package>
<package name="C0805">
<description>&lt;b&gt;CAPACITOR&lt;/b&gt;&lt;p&gt;</description>
<wire x1="-1.973" y1="0.983" x2="1.973" y2="0.983" width="0.0508" layer="39"/>
<wire x1="1.973" y1="-0.983" x2="-1.973" y2="-0.983" width="0.0508" layer="39"/>
<wire x1="-1.973" y1="-0.983" x2="-1.973" y2="0.983" width="0.0508" layer="39"/>
<wire x1="-0.381" y1="0.66" x2="0.381" y2="0.66" width="0.1016" layer="51"/>
<wire x1="-0.356" y1="-0.66" x2="0.381" y2="-0.66" width="0.1016" layer="51"/>
<wire x1="1.973" y1="0.983" x2="1.973" y2="-0.983" width="0.0508" layer="39"/>
<smd name="1" x="-0.95" y="0" dx="1.3" dy="1.5" layer="1"/>
<smd name="2" x="0.95" y="0" dx="1.3" dy="1.5" layer="1"/>
<text x="-1.27" y="1.27" size="1.27" layer="25">&gt;NAME</text>
<text x="-1.27" y="-2.54" size="1.27" layer="27">&gt;VALUE</text>
<rectangle x1="-1.0922" y1="-0.7239" x2="-0.3421" y2="0.7262" layer="51"/>
<rectangle x1="0.3556" y1="-0.7239" x2="1.1057" y2="0.7262" layer="51"/>
<rectangle x1="-0.1001" y1="-0.4001" x2="0.1001" y2="0.4001" layer="35"/>
</package>
<package name="R1206">
<description>&lt;b&gt;RESISTOR&lt;/b&gt;</description>
<wire x1="0.9525" y1="-0.8128" x2="-0.9652" y2="-0.8128" width="0.1524" layer="51"/>
<wire x1="0.9525" y1="0.8128" x2="-0.9652" y2="0.8128" width="0.1524" layer="51"/>
<wire x1="-2.473" y1="0.983" x2="2.473" y2="0.983" width="0.0508" layer="39"/>
<wire x1="2.473" y1="0.983" x2="2.473" y2="-0.983" width="0.0508" layer="39"/>
<wire x1="2.473" y1="-0.983" x2="-2.473" y2="-0.983" width="0.0508" layer="39"/>
<wire x1="-2.473" y1="-0.983" x2="-2.473" y2="0.983" width="0.0508" layer="39"/>
<smd name="2" x="1.422" y="0" dx="1.6" dy="1.803" layer="1"/>
<smd name="1" x="-1.422" y="0" dx="1.6" dy="1.803" layer="1"/>
<text x="-1.27" y="1.27" size="1.27" layer="25">&gt;NAME</text>
<text x="-1.27" y="-2.54" size="1.27" layer="27">&gt;VALUE</text>
<rectangle x1="-1.6891" y1="-0.8763" x2="-0.9525" y2="0.8763" layer="51"/>
<rectangle x1="0.9525" y1="-0.8763" x2="1.6891" y2="0.8763" layer="51"/>
<rectangle x1="-0.3" y1="-0.7" x2="0.3" y2="0.7" layer="35"/>
</package>
<package name="R0805">
<description>&lt;b&gt;RESISTOR&lt;/b&gt;&lt;p&gt;</description>
<wire x1="-0.41" y1="0.635" x2="0.41" y2="0.635" width="0.1524" layer="51"/>
<wire x1="-0.41" y1="-0.635" x2="0.41" y2="-0.635" width="0.1524" layer="51"/>
<wire x1="-1.973" y1="0.983" x2="1.973" y2="0.983" width="0.0508" layer="39"/>
<wire x1="1.973" y1="0.983" x2="1.973" y2="-0.983" width="0.0508" layer="39"/>
<wire x1="1.973" y1="-0.983" x2="-1.973" y2="-0.983" width="0.0508" layer="39"/>
<wire x1="-1.973" y1="-0.983" x2="-1.973" y2="0.983" width="0.0508" layer="39"/>
<smd name="1" x="-0.95" y="0" dx="1.3" dy="1.5" layer="1"/>
<smd name="2" x="0.95" y="0" dx="1.3" dy="1.5" layer="1"/>
<text x="-0.635" y="1.27" size="1.27" layer="25">&gt;NAME</text>
<text x="-0.635" y="-2.54" size="1.27" layer="27">&gt;VALUE</text>
<rectangle x1="0.4064" y1="-0.6985" x2="1.0564" y2="0.7015" layer="51"/>
<rectangle x1="-1.0668" y1="-0.6985" x2="-0.4168" y2="0.7015" layer="51"/>
<rectangle x1="-0.1999" y1="-0.5001" x2="0.1999" y2="0.5001" layer="35"/>
</package>
<package name="SMC_D">
<description>&lt;b&gt;Chip Capacitor &lt;/b&gt; Polar tantalum capacitors with solid electrolyte&lt;p&gt;
Siemens Matsushita Components B 45 194, B 45 197, B 45 198&lt;br&gt;
Source: www.farnell.com/datasheets/247.pdf</description>
<wire x1="-3.5" y1="2.1" x2="3.5" y2="2.1" width="0.1016" layer="51"/>
<wire x1="3.5" y1="2.1" x2="3.5" y2="-2.1" width="0.1016" layer="51"/>
<wire x1="3.5" y1="-2.1" x2="-3.5" y2="-2.1" width="0.1016" layer="51"/>
<wire x1="-3.5" y1="-2.1" x2="-3.5" y2="2.1" width="0.1016" layer="51"/>
<smd name="+" x="-3.15" y="0" dx="2.4" dy="2.8" layer="1"/>
<smd name="-" x="3.15" y="0" dx="2.4" dy="2.8" layer="1" rot="R180"/>
<text x="-2.54" y="2.54" size="1.016" layer="25">&gt;NAME</text>
<text x="-2.54" y="-3.81" size="1.016" layer="27">&gt;VALUE</text>
<rectangle x1="-3.65" y1="-1.2" x2="-3.45" y2="1.2" layer="51"/>
<rectangle x1="3.45" y1="-1.2" x2="3.65" y2="1.2" layer="51" rot="R180"/>
<rectangle x1="-3.5" y1="-2.1" x2="-2.4" y2="2.1" layer="51"/>
</package>
<package name="SMC_B">
<description>&lt;b&gt;Chip Capacitor &lt;/b&gt; Polar tantalum capacitors with solid electrolyte&lt;p&gt;
Siemens Matsushita Components B 45 194, B 45 197, B 45 198&lt;br&gt;
Source: www.farnell.com/datasheets/247.pdf</description>
<wire x1="-1.6" y1="1.35" x2="1.6" y2="1.35" width="0.1016" layer="51"/>
<wire x1="1.6" y1="1.35" x2="1.6" y2="-1.35" width="0.1016" layer="51"/>
<wire x1="1.6" y1="-1.35" x2="-1.6" y2="-1.35" width="0.1016" layer="51"/>
<wire x1="-1.6" y1="-1.35" x2="-1.6" y2="1.35" width="0.1016" layer="51"/>
<smd name="+" x="-1.5" y="0" dx="1.6" dy="2.4" layer="1"/>
<smd name="-" x="1.5" y="0" dx="1.6" dy="2.4" layer="1" rot="R180"/>
<text x="-1.905" y="1.905" size="1.016" layer="25">&gt;NAME</text>
<text x="-1.905" y="-2.54" size="1.016" layer="27">&gt;VALUE</text>
<rectangle x1="-1.75" y1="-1.1" x2="-1.55" y2="1.1" layer="51"/>
<rectangle x1="1.55" y1="-1.1" x2="1.75" y2="1.1" layer="51" rot="R180"/>
<rectangle x1="-1.6" y1="-1.35" x2="-0.95" y2="1.35" layer="51"/>
</package>
</packages>
</library>
<library name="diode">
<description>&lt;b&gt;Diodes&lt;/b&gt;&lt;p&gt;
Based on the following sources:
&lt;ul&gt;
&lt;li&gt;Motorola : www.onsemi.com
&lt;li&gt;Fairchild : www.fairchildsemi.com
&lt;li&gt;Philips : www.semiconductors.com
&lt;li&gt;Vishay : www.vishay.de
&lt;/ul&gt;
&lt;author&gt;Created by librarian@cadsoft.de&lt;/author&gt;</description>
<packages>
<package name="SOD80C">
<description>&lt;B&gt;DIODE&lt;/B&gt;</description>
<wire x1="1.3208" y1="0.7874" x2="-1.3208" y2="0.7874" width="0.1524" layer="51"/>
<wire x1="1.3208" y1="-0.7874" x2="-1.3208" y2="-0.7874" width="0.1524" layer="51"/>
<wire x1="0.627" y1="0.6" x2="-0.373" y2="0" width="0.2032" layer="21"/>
<wire x1="-0.373" y1="0" x2="0.627" y2="-0.6" width="0.2032" layer="21"/>
<wire x1="0.627" y1="-0.6" x2="0.627" y2="0.6" width="0.2032" layer="21"/>
<smd name="C" x="-1.7" y="0" dx="1.4" dy="1.8" layer="1"/>
<smd name="A" x="1.7" y="0" dx="1.4" dy="1.8" layer="1"/>
<text x="-1.524" y="1.143" size="1.27" layer="25">&gt;NAME</text>
<text x="-1.524" y="-2.413" size="1.27" layer="27">&gt;VALUE</text>
<rectangle x1="-1.8542" y1="-0.8636" x2="-1.2954" y2="0.8636" layer="51"/>
<rectangle x1="1.2954" y1="-0.8636" x2="1.8542" y2="0.8636" layer="51"/>
<rectangle x1="-0.8636" y1="-0.7874" x2="-0.254" y2="0.7874" layer="21"/>
</package>
</packages>
</library>
<library name="wirepad">
<description>&lt;b&gt;Single Pads&lt;/b&gt;&lt;p&gt;
&lt;author&gt;Created by librarian@cadsoft.de&lt;/author&gt;</description>
<packages>
<package name="SMD2,54-5,08">
<description>&lt;b&gt;SMD PAD&lt;/b&gt;</description>
<smd name="1" x="0" y="0" dx="2.54" dy="5.08" layer="1"/>
<text x="0" y="0" size="0.0254" layer="27">&gt;VALUE</text>
<text x="-1.5" y="-2.5" size="1.27" layer="25" rot="R90">&gt;NAME</text>
</package>
</packages>
</library>
<library name="inductor-coilcraft">
<description>&lt;b&gt;Coilcraft SMD Inductors&lt;/b&gt;&lt;p&gt;
&lt;author&gt;Created by librarian@cadsoft.de&lt;/author&gt;</description>
<packages>
<package name="DE1207">
<wire x1="1.5875" y1="3.937" x2="1.5875" y2="8.128" width="0.127" layer="51" curve="-50.033787"/>
<wire x1="1.5875" y1="8.128" x2="10.4775" y2="8.128" width="0.127" layer="21" curve="-129.966213"/>
<wire x1="10.4775" y1="8.128" x2="10.4775" y2="3.937" width="0.127" layer="51" curve="-50.033787"/>
<wire x1="1.5875" y1="3.937" x2="10.4775" y2="3.937" width="0.127" layer="21" curve="129.966213"/>
<smd name="1" x="0.7525" y="6.35" dx="3" dy="5.4" layer="1"/>
<smd name="2" x="11.3125" y="6.35" dx="3" dy="5.4" layer="1"/>
<text x="0" y="11.43" size="1.27" layer="25">&gt;NAME</text>
<text x="0" y="0" size="1.27" layer="27">&gt;VALUE</text>
<wire x1="0" y1="0" x2="12" y2="0" width="0.127" layer="21"/>
<wire x1="12" y1="0" x2="12" y2="12" width="0.127" layer="21"/>
<wire x1="12" y1="12" x2="0" y2="12" width="0.127" layer="21"/>
<wire x1="0" y1="12" x2="0" y2="0" width="0.127" layer="21"/>
</package>
</packages>
</library>
</libraries>
<attributes>
</attributes>
<variantdefs>
</variantdefs>
<classes>
<class number="0" name="default" width="0" drill="0">
</class>
</classes>
<designrules name="default">
<description language="de">&lt;b&gt;EAGLE Design Rules&lt;/b&gt;
&lt;p&gt;
Die Standard-Design-Rules sind so gewählt, dass sie für 
die meisten Anwendungen passen. Sollte ihre Platine 
besondere Anforderungen haben, treffen Sie die erforderlichen
Einstellungen hier und speichern die Design Rules unter 
einem neuen Namen ab.</description>
<description language="en">&lt;b&gt;EAGLE Design Rules&lt;/b&gt;
&lt;p&gt;
The default Design Rules have been set to cover
a wide range of applications. Your particular design
may have different requirements, so please make the
necessary adjustments and save your customized
design rules under a new name.</description>
<param name="layerSetup" value="(1*16)"/>
<param name="mtCopper" value="0.035mm 0.035mm 0.035mm 0.035mm 0.035mm 0.035mm 0.035mm 0.035mm 0.035mm 0.035mm 0.035mm 0.035mm 0.035mm 0.035mm 0.035mm 0.035mm"/>
<param name="mtIsolate" value="1.5mm 0.15mm 0.2mm 0.15mm 0.2mm 0.15mm 0.2mm 0.15mm 0.2mm 0.15mm 0.2mm 0.15mm 0.2mm 0.15mm 0.2mm"/>
<param name="mdWireWire" value="8mil"/>
<param name="mdWirePad" value="8mil"/>
<param name="mdWireVia" value="8mil"/>
<param name="mdPadPad" value="8mil"/>
<param name="mdPadVia" value="8mil"/>
<param name="mdViaVia" value="8mil"/>
<param name="mdSmdPad" value="8mil"/>
<param name="mdSmdVia" value="8mil"/>
<param name="mdSmdSmd" value="8mil"/>
<param name="mdViaViaSameLayer" value="8mil"/>
<param name="mnLayersViaInSmd" value="2"/>
<param name="mdCopperDimension" value="40mil"/>
<param name="mdDrill" value="8mil"/>
<param name="mdSmdStop" value="0mil"/>
<param name="msWidth" value="10mil"/>
<param name="msDrill" value="24mil"/>
<param name="msMicroVia" value="9.99mm"/>
<param name="msBlindViaRatio" value="0.5"/>
<param name="rvPadTop" value="0.25"/>
<param name="rvPadInner" value="0.25"/>
<param name="rvPadBottom" value="0.25"/>
<param name="rvViaOuter" value="0.25"/>
<param name="rvViaInner" value="0.25"/>
<param name="rvMicroViaOuter" value="0.25"/>
<param name="rvMicroViaInner" value="0.25"/>
<param name="rlMinPadTop" value="10mil"/>
<param name="rlMaxPadTop" value="20mil"/>
<param name="rlMinPadInner" value="10mil"/>
<param name="rlMaxPadInner" value="20mil"/>
<param name="rlMinPadBottom" value="10mil"/>
<param name="rlMaxPadBottom" value="20mil"/>
<param name="rlMinViaOuter" value="8mil"/>
<param name="rlMaxViaOuter" value="20mil"/>
<param name="rlMinViaInner" value="8mil"/>
<param name="rlMaxViaInner" value="20mil"/>
<param name="rlMinMicroViaOuter" value="4mil"/>
<param name="rlMaxMicroViaOuter" value="20mil"/>
<param name="rlMinMicroViaInner" value="4mil"/>
<param name="rlMaxMicroViaInner" value="20mil"/>
<param name="psTop" value="-1"/>
<param name="psBottom" value="-1"/>
<param name="psFirst" value="-1"/>
<param name="psElongationLong" value="100"/>
<param name="psElongationOffset" value="100"/>
<param name="mvStopFrame" value="1"/>
<param name="mvCreamFrame" value="0"/>
<param name="mlMinStopFrame" value="4mil"/>
<param name="mlMaxStopFrame" value="4mil"/>
<param name="mlMinCreamFrame" value="0mil"/>
<param name="mlMaxCreamFrame" value="0mil"/>
<param name="mlViaStopLimit" value="0mil"/>
<param name="srRoundness" value="0"/>
<param name="srMinRoundness" value="0mil"/>
<param name="srMaxRoundness" value="0mil"/>
<param name="slThermalIsolate" value="10mil"/>
<param name="slThermalsForVias" value="0"/>
<param name="dpMaxLengthDifference" value="10mm"/>
<param name="dpGapFactor" value="2.5"/>
<param name="checkGrid" value="0"/>
<param name="checkAngle" value="0"/>
<param name="checkFont" value="1"/>
<param name="checkRestrict" value="1"/>
<param name="useDiameter" value="13"/>
<param name="maxErrors" value="50"/>
</designrules>
<autorouter>
<pass name="Default">
<param name="RoutingGrid" value="50mil"/>
<param name="tpViaShape" value="round"/>
<param name="PrefDir.1" value="|"/>
<param name="PrefDir.2" value="0"/>
<param name="PrefDir.3" value="0"/>
<param name="PrefDir.4" value="0"/>
<param name="PrefDir.5" value="0"/>
<param name="PrefDir.6" value="0"/>
<param name="PrefDir.7" value="0"/>
<param name="PrefDir.8" value="0"/>
<param name="PrefDir.9" value="0"/>
<param name="PrefDir.10" value="0"/>
<param name="PrefDir.11" value="0"/>
<param name="PrefDir.12" value="0"/>
<param name="PrefDir.13" value="0"/>
<param name="PrefDir.14" value="0"/>
<param name="PrefDir.15" value="0"/>
<param name="PrefDir.16" value="-"/>
<param name="cfVia" value="8"/>
<param name="cfNonPref" value="5"/>
<param name="cfChangeDir" value="2"/>
<param name="cfOrthStep" value="2"/>
<param name="cfDiagStep" value="3"/>
<param name="cfExtdStep" value="0"/>
<param name="cfBonusStep" value="1"/>
<param name="cfMalusStep" value="1"/>
<param name="cfPadImpact" value="4"/>
<param name="cfSmdImpact" value="4"/>
<param name="cfBusImpact" value="0"/>
<param name="cfHugging" value="3"/>
<param name="cfAvoid" value="4"/>
<param name="cfPolygon" value="10"/>
<param name="cfBase.1" value="0"/>
<param name="cfBase.2" value="1"/>
<param name="cfBase.3" value="1"/>
<param name="cfBase.4" value="1"/>
<param name="cfBase.5" value="1"/>
<param name="cfBase.6" value="1"/>
<param name="cfBase.7" value="1"/>
<param name="cfBase.8" value="1"/>
<param name="cfBase.9" value="1"/>
<param name="cfBase.10" value="1"/>
<param name="cfBase.11" value="1"/>
<param name="cfBase.12" value="1"/>
<param name="cfBase.13" value="1"/>
<param name="cfBase.14" value="1"/>
<param name="cfBase.15" value="1"/>
<param name="cfBase.16" value="0"/>
<param name="mnVias" value="20"/>
<param name="mnSegments" value="9999"/>
<param name="mnExtdSteps" value="9999"/>
<param name="mnRipupLevel" value="10"/>
<param name="mnRipupSteps" value="100"/>
<param name="mnRipupTotal" value="100"/>
</pass>
<pass name="Follow-me" refer="Default" active="yes">
</pass>
<pass name="Busses" refer="Default" active="yes">
<param name="cfNonPref" value="4"/>
<param name="cfBusImpact" value="4"/>
<param name="cfHugging" value="0"/>
<param name="mnVias" value="0"/>
</pass>
<pass name="Route" refer="Default" active="yes">
</pass>
<pass name="Optimize1" refer="Default" active="yes">
<param name="cfVia" value="99"/>
<param name="cfExtdStep" value="10"/>
<param name="cfHugging" value="1"/>
<param name="mnExtdSteps" value="1"/>
<param name="mnRipupLevel" value="0"/>
</pass>
<pass name="Optimize2" refer="Optimize1" active="yes">
<param name="cfNonPref" value="0"/>
<param name="cfChangeDir" value="6"/>
<param name="cfExtdStep" value="0"/>
<param name="cfBonusStep" value="2"/>
<param name="cfMalusStep" value="2"/>
<param name="cfPadImpact" value="2"/>
<param name="cfSmdImpact" value="2"/>
<param name="cfHugging" value="0"/>
</pass>
<pass name="Optimize3" refer="Optimize2" active="yes">
<param name="cfChangeDir" value="8"/>
<param name="cfPadImpact" value="0"/>
<param name="cfSmdImpact" value="0"/>
</pass>
<pass name="Optimize4" refer="Optimize3" active="yes">
<param name="cfChangeDir" value="25"/>
</pass>
</autorouter>
<elements>
<element name="U$1" library="maxim" package="SO16" value="MAX798" x="6.985" y="27.305" smashed="yes" rot="R270">
<attribute name="VALUE" x="6.35" y="31.369" size="1.27" layer="27" ratio="10" rot="R270"/>
<attribute name="NAME" x="4.953" y="32.766" size="1.27" layer="25" ratio="10"/>
</element>
<element name="C1" library="rcl" package="C0805" value="2u2" x="13.0175" y="25.4" smashed="yes" rot="R90">
<attribute name="NAME" x="11.7475" y="24.13" size="1.27" layer="25" rot="R90"/>
<attribute name="VALUE" x="15.5575" y="24.13" size="1.27" layer="27" rot="R90"/>
</element>
<element name="C2" library="rcl" package="C0805" value="0.33u" x="-1.27" y="29.21" smashed="yes">
<attribute name="NAME" x="-2.54" y="30.48" size="1.27" layer="25"/>
<attribute name="VALUE" x="-3.175" y="30.48" size="1.27" layer="27"/>
</element>
<element name="C3" library="rcl" package="C0805" value="0.01u" x="1.905" y="34.6075" smashed="yes" rot="R270">
<attribute name="NAME" x="3.175" y="35.8775" size="1.27" layer="25" rot="R270"/>
<attribute name="VALUE" x="0.635" y="37.1475" size="1.27" layer="27"/>
</element>
<element name="C4" library="rcl" package="C0805" value="0.1u" x="13.335" y="28.8925" smashed="yes">
<attribute name="NAME" x="12.065" y="30.1625" size="1.27" layer="25"/>
<attribute name="VALUE" x="15.5575" y="28.2575" size="1.27" layer="27"/>
</element>
<element name="C5-DONT_USE!" library="rcl" package="C0805" value="470p" x="8.89" y="19.685" smashed="yes" rot="R90">
<attribute name="NAME" x="7.62" y="18.415" size="1.27" layer="25" rot="R90"/>
<attribute name="VALUE" x="7.9375" y="17.78" size="1.27" layer="27" rot="R270"/>
</element>
<element name="C6" library="rcl" package="C0805" value="47p" x="-2.54" y="24.13" smashed="yes">
<attribute name="NAME" x="-3.81" y="25.4" size="1.27" layer="25"/>
<attribute name="VALUE" x="-4.1275" y="25.4" size="1.27" layer="27"/>
</element>
<element name="R1" library="rcl" package="R1206" value="10R" x="16.8275" y="25.0825" smashed="yes" rot="R90">
<attribute name="NAME" x="15.5575" y="23.8125" size="1.27" layer="25" rot="R90"/>
<attribute name="VALUE" x="19.3675" y="23.8125" size="1.27" layer="27" rot="R90"/>
</element>
<element name="R2" library="rcl" package="R0805" value="1M" x="0.635" y="24.13" smashed="yes" rot="R180">
<attribute name="NAME" x="1.27" y="22.86" size="1.27" layer="25" rot="R180"/>
<attribute name="VALUE" x="1.905" y="26.67" size="1.27" layer="27" rot="R180"/>
</element>
<element name="RR1" library="rcl" package="R0805" value="RR1" x="10.795" y="19.685" smashed="yes" rot="R270">
<attribute name="NAME" x="12.065" y="20.32" size="1.27" layer="25" rot="R270"/>
<attribute name="VALUE" x="11.7475" y="18.0975" size="1.27" layer="27"/>
</element>
<element name="RR2" library="rcl" package="R1206" value="RR2" x="13.97" y="20.955" smashed="yes" rot="R180">
<attribute name="NAME" x="15.24" y="19.685" size="1.27" layer="25" rot="R180"/>
<attribute name="VALUE" x="12.3825" y="21.9075" size="1.27" layer="27"/>
</element>
<element name="C7" library="rcl" package="SMC_B" value="4u7" x="-2.54" y="34.6075" smashed="yes" rot="R90">
<attribute name="NAME" x="-4.445" y="32.7025" size="1.016" layer="25" rot="R90"/>
<attribute name="VALUE" x="-1.5875" y="38.1" size="1.016" layer="27" rot="R180"/>
</element>
<element name="C8" library="rcl" package="SMC_D" value="33u" x="21.2725" y="33.655" smashed="yes" rot="R90">
<attribute name="NAME" x="18.7325" y="31.115" size="1.016" layer="25" rot="R90"/>
<attribute name="VALUE" x="23.1775" y="32.7025" size="1.016" layer="27" rot="R90"/>
</element>
<element name="D1" library="diode" package="SOD80C" value="PMLL4150" x="7.3025" y="33.9725" smashed="yes" rot="R180">
<attribute name="NAME" x="8.8265" y="32.8295" size="1.27" layer="25" rot="R180"/>
<attribute name="VALUE" x="12.0015" y="36.3855" size="1.27" layer="27" rot="R180"/>
</element>
<element name="IN" library="wirepad" package="SMD2,54-5,08" value="" x="22.225" y="26.67" smashed="yes" rot="R90">
<attribute name="VALUE" x="22.225" y="26.67" size="0.0254" layer="27" rot="R90"/>
<attribute name="NAME" x="24.725" y="25.17" size="1.27" layer="25" rot="R180"/>
</element>
<element name="OUT" library="wirepad" package="SMD2,54-5,08" value="" x="22.225" y="17.145" smashed="yes" rot="R270">
<attribute name="VALUE" x="22.225" y="17.145" size="0.0254" layer="27" rot="R270"/>
<attribute name="NAME" x="19.725" y="18.645" size="1.27" layer="25"/>
</element>
<element name="IN_G" library="wirepad" package="SMD2,54-5,08" value="" x="22.225" y="22.5425" smashed="yes" rot="R90">
<attribute name="VALUE" x="22.225" y="22.5425" size="0.0254" layer="27" rot="R90"/>
<attribute name="NAME" x="24.725" y="21.0425" size="1.27" layer="25" rot="R180"/>
</element>
<element name="OUT_G" library="wirepad" package="SMD2,54-5,08" value="" x="22.225" y="12.7" smashed="yes" rot="R270">
<attribute name="VALUE" x="22.225" y="12.7" size="0.0254" layer="27" rot="R270"/>
<attribute name="NAME" x="19.725" y="14.2" size="1.27" layer="25"/>
</element>
<element name="U$4" library="transistor-fet" package="SO-8" value="IRF7313" x="15.875" y="33.655" smashed="yes" rot="R270">
<attribute name="VALUE" x="12.2555" y="37.2745" size="1.27" layer="27" ratio="10"/>
<attribute name="NAME" x="18.6055" y="35.687" size="1.27" layer="25" ratio="10" rot="R270"/>
</element>
<element name="C9" library="rcl" package="SMC_D" value="33u" x="11.43" y="13.335" smashed="yes" rot="R270">
<attribute name="NAME" x="13.97" y="15.875" size="1.016" layer="25" rot="R270"/>
<attribute name="VALUE" x="12.065" y="14.2875" size="1.016" layer="27" rot="R270"/>
</element>
<element name="C10" library="rcl" package="SMC_D" value="33u" x="16.51" y="13.335" smashed="yes" rot="R270">
<attribute name="NAME" x="19.05" y="15.875" size="1.016" layer="25" rot="R270"/>
<attribute name="VALUE" x="17.4625" y="14.2875" size="1.016" layer="27" rot="R270"/>
</element>
<element name="C11" library="rcl" package="C0603" value="100n" x="18.0975" y="20.0025" smashed="yes" rot="R270">
<attribute name="NAME" x="18.7325" y="20.6375" size="1.27" layer="25" rot="R270"/>
<attribute name="VALUE" x="19.05" y="19.3675" size="1.27" layer="27"/>
</element>
<element name="U$2" library="inductor-coilcraft" package="DE1207" value="12u" x="-5.08" y="7.62" smashed="yes">
<attribute name="NAME" x="-5.08" y="19.05" size="1.27" layer="25"/>
<attribute name="VALUE" x="-0.635" y="12.7" size="1.27" layer="27"/>
</element>
<element name="R6" library="rcl" package="R0805" value="15mR" x="-0.9525" y="20.6375" smashed="yes" rot="R180">
<attribute name="NAME" x="-0.3175" y="19.3675" size="1.27" layer="25" rot="R180"/>
<attribute name="VALUE" x="-2.2225" y="21.59" size="1.27" layer="27"/>
</element>
<element name="R7" library="rcl" package="R0805" value="15mR" x="1.27" y="20.6375" smashed="yes" rot="R180"/>
<element name="R8" library="rcl" package="R0805" value="15mR" x="3.4925" y="20.6375" smashed="yes" rot="R180"/>
<element name="R9" library="rcl" package="R0805" value="15mR" x="5.715" y="20.6375" smashed="yes" rot="R180"/>
</elements>
<signals>
<signal name="GND">
<contactref element="C1" pad="2"/>
<contactref element="C2" pad="1"/>
<contactref element="C3" pad="1"/>
<contactref element="C7" pad="-"/>
<contactref element="U$1" pad="12"/>
<contactref element="U$1" pad="4"/>
<contactref element="U$1" pad="5"/>
<contactref element="C8" pad="-"/>
<contactref element="RR2" pad="1"/>
<polygon width="0.4064" layer="1" isolate="0.6096">
<vertex x="29.845" y="40.9575"/>
<vertex x="30.48" y="5.715"/>
<vertex x="-7.9375" y="5.3975"/>
<vertex x="-7.9375" y="41.275"/>
</polygon>
<contactref element="IN_G" pad="1"/>
<contactref element="OUT_G" pad="1"/>
<wire x1="3.81" y1="27.305" x2="2.8575" y2="27.305" width="1.27" layer="1"/>
<wire x1="-3.175" y1="30.48" x2="-3.175" y2="27.305" width="1.27" layer="1"/>
<wire x1="3.81" y1="27.305" x2="3.81" y2="26.7716" width="0.5096" layer="1"/>
<wire x1="3.81" y1="26.7716" x2="3.9116" y2="26.67" width="0.5096" layer="1"/>
<wire x1="10.16" y1="26.67" x2="12.065" y2="26.67" width="0.5096" layer="1"/>
<contactref element="U$4" pad="3"/>
<contactref element="C9" pad="-"/>
<wire x1="15.24" y1="25.0825" x2="18.7325" y2="25.0825" width="0.4064" layer="1"/>
<contactref element="C10" pad="-"/>
<contactref element="C11" pad="1"/>
<wire x1="22.225" y1="22.5425" x2="18.7325" y2="22.5425" width="0.508" layer="1"/>
<wire x1="18.7325" y1="22.5425" x2="18.7325" y2="24.765" width="0.508" layer="1"/>
<wire x1="18.7325" y1="24.765" x2="18.7325" y2="25.0825" width="0.3556" layer="1"/>
<wire x1="15.24" y1="35.8775" x2="15.24" y2="37.7825" width="0.8128" layer="1"/>
</signal>
<signal name="N$2">
<contactref element="R1" pad="2"/>
<contactref element="C8" pad="+"/>
<contactref element="IN" pad="1"/>
<contactref element="U$4" pad="7"/>
<contactref element="U$4" pad="8"/>
<wire x1="21.2725" y1="30.505" x2="21.2725" y2="26.67" width="1.016" layer="1"/>
<wire x1="21.2725" y1="26.67" x2="22.225" y2="26.67" width="1.016" layer="1"/>
<wire x1="16.8275" y1="26.5045" x2="16.8275" y2="29.845" width="1.016" layer="1"/>
<wire x1="16.8275" y1="29.845" x2="17.145" y2="30.48" width="1.016" layer="1"/>
<wire x1="17.145" y1="30.48" x2="17.145" y2="30.7975" width="1.016" layer="1"/>
<wire x1="17.145" y1="30.7975" x2="17.145" y2="30.9118" width="1.016" layer="1"/>
<wire x1="16.8275" y1="26.5045" x2="21.107" y2="26.5045" width="1.016" layer="1"/>
<wire x1="21.107" y1="26.5045" x2="21.1205" y2="26.5045" width="1.016" layer="1"/>
<wire x1="21.107" y1="26.5045" x2="21.2725" y2="26.67" width="0.508" layer="1"/>
<wire x1="17.78" y1="30.9118" x2="17.2593" y2="30.9118" width="0.508" layer="1"/>
<wire x1="17.2593" y1="30.9118" x2="17.145" y2="30.7975" width="0.508" layer="1"/>
<wire x1="16.51" y1="30.9118" x2="17.0307" y2="30.9118" width="0.508" layer="1"/>
<wire x1="17.0307" y1="30.9118" x2="17.145" y2="30.7975" width="0.508" layer="1"/>
</signal>
<signal name="N$3">
<contactref element="U$1" pad="3"/>
<contactref element="C2" pad="2"/>
<wire x1="-0.32" y1="29.21" x2="3.9116" y2="29.21" width="0.6096" layer="1"/>
</signal>
<signal name="N$4">
<contactref element="U$1" pad="1"/>
<contactref element="C3" pad="2"/>
<wire x1="3.9116" y1="31.75" x2="3.175" y2="31.75" width="0.5096" layer="1"/>
<wire x1="3.175" y1="31.75" x2="1.905" y2="33.02" width="0.5096" layer="1"/>
<wire x1="1.905" y1="33.02" x2="1.905" y2="33.6575" width="0.5096" layer="1"/>
</signal>
<signal name="N$5">
<contactref element="U$1" pad="2"/>
<contactref element="D1" pad="A"/>
<contactref element="U$1" pad="11"/>
<contactref element="C7" pad="+"/>
<wire x1="-2.54" y1="33.1075" x2="-1.575" y2="33.0075" width="0.6096" layer="1"/>
<wire x1="-1.575" y1="33.0075" x2="0.9525" y2="30.48" width="0.6096" layer="1"/>
<wire x1="0.9525" y1="30.48" x2="3.9116" y2="30.48" width="0.6096" layer="1"/>
<wire x1="10.0584" y1="25.4" x2="7.9375" y2="25.4" width="0.5096" layer="1"/>
<wire x1="7.9375" y1="25.4" x2="6.0325" y2="27.305" width="0.5096" layer="1"/>
<wire x1="6.0325" y1="27.305" x2="6.0325" y2="30.48" width="0.5096" layer="1"/>
<wire x1="6.0325" y1="30.48" x2="6.0325" y2="33.02" width="0.5096" layer="1"/>
<wire x1="6.0325" y1="33.02" x2="5.08" y2="33.9725" width="0.5096" layer="1"/>
<wire x1="5.08" y1="33.9725" x2="5.6025" y2="33.9725" width="0.5096" layer="1"/>
<wire x1="3.9116" y1="30.48" x2="6.0325" y2="30.48" width="0.5096" layer="1"/>
</signal>
<signal name="N$6">
<contactref element="D1" pad="C"/>
<contactref element="U$1" pad="14"/>
<contactref element="C4" pad="1"/>
<wire x1="10.0584" y1="29.21" x2="10.16" y2="29.21" width="0.6096" layer="1"/>
<wire x1="10.16" y1="29.21" x2="12.385" y2="29.21" width="0.5096" layer="1"/>
<wire x1="12.385" y1="29.21" x2="12.385" y2="28.8925" width="0.5096" layer="1"/>
<wire x1="9.0025" y1="33.9725" x2="9.2075" y2="33.655" width="0.5096" layer="1"/>
<wire x1="9.2075" y1="33.655" x2="8.255" y2="32.7025" width="0.5096" layer="1"/>
<wire x1="8.255" y1="32.7025" x2="8.255" y2="29.5275" width="0.5096" layer="1"/>
<wire x1="8.255" y1="29.5275" x2="8.5725" y2="29.21" width="0.5096" layer="1"/>
<wire x1="8.5725" y1="29.21" x2="10.0584" y2="29.21" width="0.5096" layer="1"/>
</signal>
<signal name="N$7">
<contactref element="U$1" pad="15"/>
<contactref element="C4" pad="2"/>
<contactref element="C6" pad="1"/>
<via x="12.3825" y="31.115" extent="1-16" drill="0.6" diameter="1.27"/>
<wire x1="14.285" y1="28.8925" x2="14.285" y2="28.89" width="0.6096" layer="1"/>
<wire x1="10.0584" y1="30.48" x2="11.43" y2="30.48" width="0.6096" layer="1"/>
<wire x1="11.43" y1="30.48" x2="12.065" y2="31.115" width="0.6096" layer="1"/>
<wire x1="12.065" y1="31.115" x2="12.3825" y2="31.115" width="0.6096" layer="1"/>
<contactref element="U$4" pad="1"/>
<contactref element="U$4" pad="5"/>
<contactref element="U$4" pad="6"/>
<wire x1="17.78" y1="36.3982" x2="17.78" y2="33.9725" width="0.7112" layer="1"/>
<wire x1="17.78" y1="33.9725" x2="16.51" y2="32.7025" width="0.8128" layer="1"/>
<wire x1="16.51" y1="32.7025" x2="13.97" y2="32.7025" width="0.8128" layer="1"/>
<wire x1="13.97" y1="32.7025" x2="12.3825" y2="31.115" width="0.8128" layer="1"/>
<wire x1="13.97" y1="30.9118" x2="15.24" y2="30.9118" width="0.8128" layer="1"/>
<wire x1="14.0818" y1="29.0068" x2="14.285" y2="28.8925" width="0.8128" layer="1"/>
<wire x1="13.97" y1="30.9118" x2="12.5857" y2="30.9118" width="0.8128" layer="1"/>
<wire x1="12.5857" y1="30.9118" x2="12.3825" y2="31.115" width="0.8128" layer="1"/>
<wire x1="13.97" y1="30.9118" x2="13.97" y2="29.2075" width="0.8128" layer="1"/>
<wire x1="13.97" y1="29.2075" x2="14.285" y2="28.8925" width="0.8128" layer="1"/>
<contactref element="U$2" pad="1"/>
<wire x1="-4.3275" y1="13.97" x2="-4.3275" y2="21.155" width="1.6764" layer="1"/>
<wire x1="-4.3275" y1="21.155" x2="-4.1275" y2="21.9075" width="1.6764" layer="1"/>
<wire x1="-3.49" y1="24.13" x2="-4.125" y2="21.91" width="1.27" layer="1"/>
<wire x1="-4.125" y1="21.91" x2="-4.1275" y2="21.9075" width="1.27" layer="1"/>
<wire x1="-3.49" y1="24.13" x2="-4.1275" y2="23.4925" width="0.4064" layer="1"/>
<wire x1="-4.1275" y1="23.4925" x2="-4.1275" y2="21.9075" width="0.4064" layer="1"/>
<via x="-4.1275" y="21.9075" extent="1-16" drill="0.6" shape="square"/>
<wire x1="-4.1275" y1="21.9075" x2="11.7475" y2="21.9075" width="0.4064" layer="16"/>
<wire x1="11.7475" y1="21.9075" x2="11.43" y2="22.225" width="0.4064" layer="16"/>
<wire x1="11.43" y1="22.225" x2="11.43" y2="30.48" width="0.4064" layer="16"/>
<wire x1="11.43" y1="30.48" x2="12.065" y2="31.115" width="0.4064" layer="16"/>
<wire x1="12.065" y1="31.115" x2="12.3825" y2="31.115" width="0.4064" layer="16"/>
</signal>
<signal name="N$8">
<contactref element="U$1" pad="16"/>
<wire x1="10.0584" y1="31.75" x2="10.16" y2="31.75" width="0.6096" layer="1"/>
<wire x1="10.16" y1="31.75" x2="12.7" y2="34.29" width="0.8128" layer="1"/>
<contactref element="U$4" pad="2"/>
<wire x1="16.51" y1="36.3982" x2="16.51" y2="34.925" width="0.7112" layer="1"/>
<wire x1="16.51" y1="34.925" x2="15.875" y2="34.29" width="0.8128" layer="1"/>
<wire x1="15.875" y1="34.29" x2="12.7" y2="34.29" width="0.8128" layer="1"/>
</signal>
<signal name="N$9">
<contactref element="U$1" pad="13"/>
<wire x1="10.0584" y1="27.94" x2="7.9375" y2="27.94" width="0.5096" layer="1"/>
<wire x1="7.9375" y1="27.94" x2="7.3025" y2="28.575" width="0.5096" layer="1"/>
<wire x1="7.3025" y1="28.575" x2="7.3025" y2="35.8775" width="0.5096" layer="1"/>
<contactref element="U$4" pad="4"/>
<wire x1="7.3025" y1="35.8775" x2="13.4493" y2="35.8775" width="0.508" layer="1"/>
<wire x1="13.4493" y1="35.8775" x2="13.97" y2="36.3982" width="0.508" layer="1"/>
</signal>
<signal name="N$10">
<contactref element="C6" pad="2"/>
<contactref element="R2" pad="2"/>
<wire x1="-0.315" y1="24.13" x2="-1.59" y2="24.13" width="0.6096" layer="1"/>
</signal>
<signal name="N$11">
<contactref element="R2" pad="1"/>
<contactref element="U$1" pad="7"/>
<contactref element="RR1" pad="1"/>
<contactref element="RR2" pad="2"/>
<contactref element="C5-DONT_USE!" pad="2"/>
<wire x1="3.9116" y1="24.13" x2="5.715" y2="24.13" width="0.6096" layer="1"/>
<wire x1="5.715" y1="24.13" x2="7.3025" y2="22.5425" width="0.6096" layer="1"/>
<wire x1="7.3025" y1="22.5425" x2="7.62" y2="22.5425" width="0.6096" layer="1"/>
<wire x1="7.62" y1="22.5425" x2="8.89" y2="21.2725" width="0.6096" layer="1"/>
<wire x1="8.89" y1="21.2725" x2="8.89" y2="20.635" width="0.6096" layer="1"/>
<wire x1="8.89" y1="20.635" x2="10.795" y2="20.635" width="0.6096" layer="1"/>
<wire x1="10.795" y1="20.635" x2="11.593" y2="20.635" width="0.6096" layer="1"/>
<wire x1="11.593" y1="20.635" x2="12.548" y2="20.955" width="0.6096" layer="1"/>
<wire x1="1.585" y1="24.13" x2="3.9116" y2="24.13" width="0.6096" layer="1"/>
</signal>
<signal name="N$14">
<contactref element="U$1" pad="8"/>
<contactref element="U$2" pad="2"/>
<contactref element="R6" pad="2"/>
<wire x1="3.9116" y1="22.86" x2="3.175" y2="22.86" width="0.4064" layer="1"/>
<wire x1="3.175" y1="22.86" x2="2.54" y2="22.225" width="0.4064" layer="1"/>
<wire x1="2.54" y1="22.225" x2="-0.9525" y2="22.225" width="0.4064" layer="1"/>
<wire x1="-0.9525" y1="22.225" x2="-1.905" y2="21.2725" width="0.4064" layer="1"/>
<wire x1="-1.905" y1="21.2725" x2="-1.905" y2="20.64" width="0.4064" layer="1"/>
<wire x1="-1.905" y1="20.64" x2="-1.9025" y2="20.6375" width="0.4064" layer="1"/>
<wire x1="6.2325" y1="13.97" x2="3.175" y2="13.97" width="1.6764" layer="1"/>
<wire x1="3.175" y1="13.97" x2="-1.905" y2="19.05" width="1.6764" layer="1"/>
<wire x1="-1.905" y1="19.05" x2="-1.905" y2="19.3675" width="1.6764" layer="1"/>
<wire x1="-1.905" y1="19.3675" x2="-1.905" y2="20.635" width="1.27" layer="1"/>
<wire x1="-1.905" y1="20.635" x2="-1.9025" y2="20.6375" width="1.27" layer="1"/>
</signal>
<signal name="N$12">
<contactref element="C5-DONT_USE!" pad="1"/>
<contactref element="RR1" pad="2"/>
<contactref element="U$1" pad="9"/>
<contactref element="OUT" pad="1"/>
<wire x1="13.97" y1="18.7325" x2="13.97" y2="22.225" width="0.4064" layer="1"/>
<wire x1="13.97" y1="22.225" x2="13.335" y2="22.86" width="0.4064" layer="1"/>
<wire x1="13.335" y1="22.86" x2="10.0584" y2="22.86" width="0.4064" layer="1"/>
<wire x1="10.795" y1="18.735" x2="11.43" y2="18.735" width="0.6096" layer="1"/>
<wire x1="11.43" y1="18.735" x2="13.65" y2="18.735" width="0.6096" layer="1"/>
<wire x1="13.65" y1="18.735" x2="13.97" y2="18.7325" width="0.6096" layer="1"/>
<contactref element="C9" pad="+"/>
<contactref element="C10" pad="+"/>
<wire x1="10.795" y1="18.735" x2="8.89" y2="18.735" width="0.6096" layer="1"/>
<wire x1="10.795" y1="18.735" x2="9.525" y2="18.7325" width="1.27" layer="1"/>
<wire x1="9.525" y1="18.7325" x2="13.97" y2="18.7325" width="1.27" layer="1"/>
<wire x1="13.97" y1="18.7325" x2="16.51" y2="18.7325" width="1.27" layer="1"/>
<wire x1="16.51" y1="18.7325" x2="19.3675" y2="18.7325" width="1.27" layer="1"/>
<wire x1="19.3675" y1="18.7325" x2="20.955" y2="17.145" width="1.27" layer="1"/>
<contactref element="C11" pad="2"/>
<wire x1="20.955" y1="17.145" x2="22.225" y2="17.145" width="1.27" layer="1"/>
<wire x1="19.3675" y1="18.7325" x2="17.4625" y2="18.7325" width="0.4064" layer="1"/>
<wire x1="17.4625" y1="18.7325" x2="18.0975" y2="19.1525" width="0.4064" layer="1"/>
<wire x1="6.665" y1="20.005" x2="7.9375" y2="18.7325" width="1.27" layer="1"/>
<wire x1="7.9375" y1="18.7325" x2="8.2525" y2="18.7325" width="1.27" layer="1"/>
<wire x1="8.2525" y1="18.7325" x2="8.89" y2="18.735" width="1.27" layer="1"/>
<wire x1="11.43" y1="16.485" x2="11.43" y2="18.735" width="1.27" layer="1"/>
<wire x1="16.51" y1="16.485" x2="16.51" y2="18.7325" width="1.27" layer="1"/>
<contactref element="R9" pad="1"/>
<wire x1="6.665" y1="20.005" x2="6.665" y2="20.6375" width="0" layer="19" extent="1-1"/>
</signal>
<signal name="N$13">
<contactref element="U$1" pad="6"/>
<contactref element="U$1" pad="10"/>
<contactref element="R1" pad="1"/>
<contactref element="C1" pad="1"/>
<wire x1="3.9116" y1="25.4" x2="6.0325" y2="25.4" width="0.4064" layer="1"/>
<wire x1="6.0325" y1="25.4" x2="7.3025" y2="24.13" width="0.4064" layer="1"/>
<wire x1="7.3025" y1="24.13" x2="10.0584" y2="24.13" width="0.4064" layer="1"/>
<wire x1="10.0584" y1="24.13" x2="12.0625" y2="24.13" width="0.508" layer="1"/>
<wire x1="12.0625" y1="24.13" x2="13.0175" y2="24.45" width="0.508" layer="1"/>
<wire x1="16.8275" y1="23.6605" x2="13.807" y2="23.6605" width="0.6096" layer="1"/>
<wire x1="13.807" y1="23.6605" x2="13.0175" y2="24.45" width="0.6096" layer="1"/>
</signal>
<signal name="N$1">
<contactref element="R6" pad="1"/>
<contactref element="R7" pad="2"/>
<wire x1="0.32" y1="20.6375" x2="-0.0025" y2="20.6375" width="0" layer="19" extent="1-1"/>
</signal>
<signal name="N$15">
<contactref element="R7" pad="1"/>
<contactref element="R8" pad="2"/>
<wire x1="2.22" y1="20.6375" x2="2.5425" y2="20.6375" width="0" layer="19" extent="1-1"/>
</signal>
<signal name="N$16">
<contactref element="R8" pad="1"/>
<contactref element="R9" pad="2"/>
<wire x1="4.765" y1="20.6375" x2="4.4425" y2="20.6375" width="0" layer="19" extent="1-1"/>
</signal>
</signals>
</board>
</drawing>
</eagle>
